# MagicaVoxel @ Ephtracy

# group
o 

# material
mtllib bush.mtl
usemtl palette

# normals
vn -1 0 0
vn 1 0 0
vn 0 0 1
vn 0 0 -1
vn 0 -1 0
vn 0 1 0

# texcoords
vt 0.822266 0.5
vt 0.896484 0.5

# verts
v -2 1.3 -0.9
v -2 1.3 -1.1
v -2 1.4 -0.9
v -2 1.4 -1.1
v -1.9 0.2 -0.6
v -1.9 0.2 -1
v -1.9 0.2 -1.4
v -1.9 0.2 -1.6
v -1.9 0.7 -1.1
v -1.9 0.7 -1.3
v -1.9 0.9 -1.1
v -1.9 0.9 -1.3
v -1.9 1.1 -1
v -1.9 1.1 -1.4
v -1.9 1.3 -0.6
v -1.9 1.3 -0.9
v -1.9 1.3 -1.1
v -1.9 1.3 -1.6
v -1.8 0.2 -1.6
v -1.8 0.2 -2
v -1.8 0.5 -1
v -1.8 0.5 -1.4
v -1.8 0.7 -1.1
v -1.8 0.7 -1.3
v -1.8 0.9 -1.1
v -1.8 0.9 -1.3
v -1.8 1.1 -1
v -1.8 1.1 -1.4
v -1.8 1.3 0.9
v -1.8 1.3 0.6
v -1.8 1.3 -1.1
v -1.8 1.3 -1.5
v -1.8 1.3 -1.6
v -1.8 1.3 -2
v -1.8 1.4 -0.9
v -1.8 1.4 -1.1
v -1.8 1.5 -0.5
v -1.8 1.5 -0.7
v -1.8 1.7 0.9
v -1.8 1.7 0.6
v -1.8 1.7 -0.5
v -1.8 1.7 -0.7
v -1.8 1.7 -0.9
v -1.8 1.7 -1.5
v -1.8 1.9 0.4
v -1.8 1.9 0.2
v -1.8 2.1 0.4
v -1.8 2.1 0.2
v -1.7 0 1.1
v -1.7 0 -1
v -1.7 0 -1.4
v -1.7 0 -1.5
v -1.7 0.1 1.1
v -1.7 0.1 -1
v -1.7 0.1 -1.4
v -1.7 0.1 -1.5
v -1.7 1.3 0.6
v -1.7 1.3 -0.6
v -1.7 1.3 -0.9
v -1.7 1.5 -0.5
v -1.7 1.5 -0.7
v -1.7 1.7 0.6
v -1.7 1.7 0.5
v -1.7 1.7 -0.5
v -1.7 1.7 -0.7
v -1.7 1.7 -0.9
v -1.7 1.9 0.4
v -1.7 1.9 0.2
v -1.7 2.1 0.4
v -1.7 2.1 0.2
v -1.7 2.3 0.5
v -1.7 2.3 -0.9
v -1.6 0 -1
v -1.6 0 -1.4
v -1.6 0.1 -1
v -1.6 0.1 -1.4
v -1.6 0.2 -1
v -1.6 0.2 -1.4
v -1.6 0.5 -1
v -1.6 0.5 -1.4
v -1.6 1.3 -1.5
v -1.6 1.3 -2
v -1.6 1.5 -1.5
v -1.6 1.5 -2
v -1.5 0.3 0.4
v -1.5 0.3 0.2
v -1.5 0.5 0.4
v -1.5 0.5 0.2
v -1.5 0.6 0.3
v -1.5 0.6 -0.2
v -1.5 0.9 -0.2
v -1.5 0.9 -0.6
v -1.5 1.3 0.3
v -1.5 1.3 -0.6
v -1.5 2.3 -0.5
v -1.5 2.3 -0.7
v -1.5 2.4 -0.5
v -1.5 2.4 -0.7
v -1.4 0.1 0.8
v -1.4 0.1 -1.2
v -1.4 0.2 -0.6
v -1.4 0.2 -1.2
v -1.4 0.3 0.4
v -1.4 0.3 0.2
v -1.4 0.5 0.4
v -1.4 0.5 0.2
v -1.4 0.6 0.3
v -1.4 0.6 -0.2
v -1.4 0.7 0.8
v -1.4 0.7 0.3
v -1.4 0.9 -0.2
v -1.4 0.9 -0.6
v -1.4 1.7 0.9
v -1.4 1.7 0.5
v -1.4 2.2 0.9
v -1.4 2.2 0.5
v -1.3 0 2
v -1.3 0 1.6
v -1.3 0.2 2
v -1.3 0.2 1.9
v -1.3 0.7 0.4
v -1.3 0.7 0.2
v -1.3 0.8 2
v -1.3 0.8 1.9
v -1.3 1 2
v -1.3 1 1.6
v -1.3 1 1.2
v -1.3 1 0.4
v -1.3 1.2 1.2
v -1.3 1.2 0.2
v -1.3 1.5 -1.5
v -1.3 1.5 -1.8
v -1.3 1.6 -1.5
v -1.3 1.6 -1.8
v -1.2 0 1.6
v -1.2 0 1.3
v -1.2 0.6 1.6
v -1.2 0.6 1.3
v -1.2 1.6 1
v -1.2 1.6 0.9
v -1.2 1.8 1
v -1.2 1.8 0.9
v -1.1 0.1 1.1
v -1.1 0.1 0.8
v -1.1 0.4 1.1
v -1.1 0.4 0.8
v -1.1 0.6 1.6
v -1.1 0.6 1.3
v -1.1 0.6 0.8
v -1.1 0.7 0.8
v -1.1 0.7 0.4
v -1.1 1 1.6
v -1.1 1 1.2
v -1.1 1 0.4
v -1 0 1.3
v -1 0 1.1
v -1 0.1 -1.2
v -1 0.1 -1.4
v -1 0.2 -1.2
v -1 0.2 -1.4
v -1 0.4 1.1
v -1 0.4 0.8
v -1 0.6 1.3
v -1 0.6 0.8
v -1 1 1.6
v -1 1 1.2
v -1 1 0.2
v -1 1 -0.4
v -1 1.1 1.6
v -1 1.1 1.2
v -1 1.1 0.0999999
v -1 1.1 -0.2
v -1 1.2 0.9
v -1 1.2 0.2
v -1 1.2 -0.4
v -1 1.3 0.9
v -1 1.3 0.0999999
v -1 1.3 -0.2
v -1 1.3 -0.4
v -1 1.6 -1.6
v -1 1.6 -1.8
v -1 1.7 -1.6
v -1 1.7 -1.8
v -0.9 0.3 -1.7
v -0.9 0.3 -2
v -0.9 0.4 -1.9
v -0.9 0.4 -2
v -0.9 0.5 -1.7
v -0.9 0.5 -1.9
v -0.9 1.2 1
v -0.9 1.2 0.9
v -0.9 1.4 1.2
v -0.9 1.4 1
v -0.9 1.7 -0.8
v -0.9 1.7 -1.2
v -0.9 1.8 1.2
v -0.9 1.8 0.9
v -0.9 1.8 -0.8
v -0.9 1.8 -1.2
v -0.9 2 1
v -0.9 2 0.9
v -0.9 2.2 0.9
v -0.9 2.2 0.4
v -0.9 2.2 0.2
v -0.9 2.2 -0.3
v -0.9 2.3 1
v -0.9 2.3 0.4
v -0.9 2.3 0.2
v -0.9 2.3 -0.3
v -0.8 0.7 -1.6
v -0.8 0.7 -1.7
v -0.8 0.9 -1.6
v -0.8 0.9 -1.7
v -0.8 1 -0.4
v -0.8 1 -0.6
v -0.8 1.1 1.6
v -0.8 1.1 1
v -0.8 1.2 -0.4
v -0.8 1.2 -0.6
v -0.8 1.4 1.2
v -0.8 1.4 1
v -0.8 1.8 1.6
v -0.8 1.8 1.2
v -0.8 1.8 -0.8
v -0.8 1.8 -1.1
v -0.8 2.1 -0.8
v -0.8 2.1 -1.1
v -0.7 1.8 1.1
v -0.7 1.8 0.9
v -0.7 1.9 1.1
v -0.7 1.9 0.9
v -0.6 1 0.9
v -0.6 1 0.8
v -0.6 1.1 0.9
v -0.6 1.1 0.8
v -0.6 1.6 1.7
v -0.6 1.6 1.6
v -0.6 1.8 1.7
v -0.6 1.8 1.6
v -0.6 2.1 1
v -0.6 2.1 0.9
v -0.6 2.2 0.9
v -0.6 2.2 -0.4
v -0.6 2.3 1
v -0.6 2.3 -0.4
v -0.5 0.5 -1.6
v -0.5 0.5 -1.8
v -0.5 0.8 -1.8
v -0.5 0.8 -1.9
v -0.5 1.1 -1.6
v -0.5 1.1 -1.9
v -0.5 1.1 -2
v -0.5 1.3 -1.9
v -0.5 1.3 -2
v -0.4 2.3 1
v -0.4 2.3 -0.4
v -0.4 2.4 0.0999999
v -0.4 2.4 -0.4
v -0.4 2.5 1
v -0.4 2.5 0.0999999
v -0.3 0.2 2
v -0.3 0.2 1.9
v -0.3 0.8 2
v -0.3 0.8 1.9
v -0.3 2.4 0.0999999
v -0.3 2.4 -0.2
v -0.3 2.5 0.0999999
v -0.3 2.5 -0.1
v -0.3 2.5 -0.2
v -0.3 2.6 0.0999999
v -0.3 2.6 -0.1
v -0.2 1.2 -0.7
v -0.2 1.2 -0.8
v -0.2 1.3 -0.7
v -0.2 1.3 -0.8
v -0.0999999 0.8 1.5
v -0.0999999 0.8 1.4
v -0.0999999 1 1.5
v -0.0999999 1 1.4
v -0.0999999 1 0.8
v -0.0999999 1 0.7
v -0.0999999 1.1 0.8
v -0.0999999 1.1 0.7
v -0.0999999 1.5 -1.5
v -0.0999999 1.5 -1.7
v -0.0999999 1.6 1.3
v -0.0999999 1.6 1.2
v -0.0999999 1.6 -1.5
v -0.0999999 1.6 -1.7
v -0.0999999 1.8 1.3
v -0.0999999 1.8 1.2
v -0.0999999 2.3 1.1
v -0.0999999 2.3 1
v -0.0999999 2.5 1.1
v -0.0999999 2.5 1
v 2.38419e-007 0.1 -1.4
v 2.38419e-007 0.1 -1.5
v 2.38419e-007 0.1 -2
v 2.38419e-007 0.3 -1.8
v 2.38419e-007 0.3 -2
v 2.38419e-007 0.4 -1.2
v 2.38419e-007 0.4 -1.4
v 2.38419e-007 0.7 -1
v 2.38419e-007 0.7 -1.2
v 2.38419e-007 0.8 -1.8
v 2.38419e-007 0.8 -1.9
v 2.38419e-007 0.9 -1
v 2.38419e-007 0.9 -1.9
v 0.2 1 1.1
v 0.2 1 0.8
v 0.2 1.1 1.1
v 0.2 1.1 0.8
v 0.3 0.3 -1.8
v 0.3 0.3 -1.9
v 0.3 0.8 -1.8
v 0.3 0.8 -1.9
v 0.3 1.7 -1.2
v 0.3 1.7 -1.4
v 0.3 1.8 -1.2
v 0.3 1.8 -1.4
v 0.3 2.4 -0.2
v 0.3 2.4 -0.4
v 0.3 2.5 -0.2
v 0.3 2.5 -0.4
v 0.4 0.8 -1.9
v 0.4 0.8 -2
v 0.4 0.9 -1.9
v 0.4 0.9 -2
v 0.5 0.9 -1.3
v 0.5 0.9 -1.5
v 0.5 1 -1.3
v 0.5 1 -1.5
v 0.9 0.5 1.4
v 0.9 0.5 1.1
v 0.9 0.5 -1.8
v 0.9 0.5 -1.9
v 0.9 0.6 1.4
v 0.9 0.6 1.1
v 0.9 0.6 -1.5
v 0.9 0.6 -1.8
v 0.9 0.7 -1.5
v 0.9 0.7 -1.8
v 0.9 0.7 -1.9
v 0.9 1 -1.5
v 0.9 1 -1.8
v 0.9 2.5 -0.1
v 0.9 2.5 -0.3
v 0.9 2.6 -0.1
v 0.9 2.6 -0.3
v 1.3 0.1 1.5
v 1.3 0.1 1.4
v 1.3 0.1 0.5
v 1.3 0.1 -2.38419e-007
v 1.3 0.6 1.4
v 1.3 0.6 0.6
v 1.3 0.6 0.5
v 1.3 0.6 0.4
v 1.3 0.6 0.2
v 1.3 0.6 -2.38419e-007
v 1.3 0.6 -0.1
v 1.3 0.6 -0.2
v 1.3 0.6 -0.4
v 1.3 0.6 -1.5
v 1.3 0.7 1.5
v 1.3 0.7 0.6
v 1.3 0.7 0.4
v 1.3 0.7 0.2
v 1.3 0.7 -0.1
v 1.3 0.7 -0.2
v 1.3 0.7 -0.4
v 1.3 0.7 -0.6
v 1.3 0.7 -1.3
v 1.3 0.7 -1.5
v 1.3 1 -1.3
v 1.3 1 -1.8
v 1.3 1 -2
v 1.3 1.1 -0.6
v 1.3 1.1 -1.1
v 1.3 1.1 -1.3
v 1.3 1.1 -2
v 1.3 1.2 -1.1
v 1.3 1.2 -1.3
v 1.7 0.1 1.5
v 1.7 0.1 1.4
v 1.7 0.7 1.5
v 1.7 0.7 1.4
v 1.8 0.6 -0.7
v 1.8 0.6 -0.9
v 1.8 0.7 -0.7
v 1.8 0.7 -0.9
v -1.7 0.3 -1.7
v -1.7 0.3 -2
v -1.7 0.9 -1.7
v -1.7 0.9 -2
v -1.4 0.7 0.3
v -1.4 0.7 0.2
v -1.4 0.9 -1.9
v -1.4 0.9 -2
v -1.4 1.3 0.3
v -1.4 1.3 0.2
v -1.4 1.3 -1.9
v -1.4 1.3 -2
v -1.3 2.3 -0.5
v -1.3 2.3 -0.7
v -1.3 2.4 -0.5
v -1.3 2.4 -0.7
v -1.2 0.9 -1.8
v -1.2 0.9 -1.9
v -1.2 1 -1.8
v -1.2 1 -1.9
v -1.1 1 0.2
v -1.1 1 -0.6
v -1.1 1.1 0.0999999
v -1.1 1.1 -0.2
v -1.1 1.2 0.2
v -1.1 1.2 -0.4
v -1.1 1.2 -0.6
v -1.1 1.3 0.2
v -1.1 1.3 0.0999999
v -1.1 1.3 -0.2
v -1.1 1.3 -0.4
v -1.1 1.7 -0.8
v -1.1 1.7 -0.9
v -1.1 2.2 0.5
v -1.1 2.2 -0.8
v -1.1 2.3 0.5
v -1.1 2.3 -0.9
v -1 0.5 -1.6
v -1 0.5 -1.7
v -1 0.9 -1.7
v -1 0.9 -1.8
v -1 1 -1.8
v -1 1 -1.9
v -1 1.1 -1.6
v -1 1.1 -1.9
v -1 1.6 1
v -1 1.6 0.9
v -1 1.8 1
v -1 1.8 0.9
v -0.9 1 0.9
v -0.9 1 0.8
v -0.9 1.1 1.2
v -0.9 1.1 1
v -0.9 1.1 0.9
v -0.9 1.1 0.8
v -0.9 1.2 1.2
v -0.9 1.2 1
v -0.8 0 2
v -0.8 0 1.8
v -0.8 0.2 2
v -0.8 0.2 1.9
v -0.8 0.2 1.8
v -0.8 0.7 1.7
v -0.8 0.7 1.6
v -0.8 0.8 2
v -0.8 0.8 1.9
v -0.8 0.8 1.7
v -0.8 1 2
v -0.8 1 1.6
v -0.8 1.6 -1.6
v -0.8 1.6 -1.8
v -0.8 1.7 -1.6
v -0.8 1.7 -1.8
v -0.8 2 1
v -0.8 2 0.9
v -0.8 2.2 0.9
v -0.8 2.2 0.4
v -0.8 2.3 1
v -0.8 2.3 0.4
v -0.7 2.2 0.2
v -0.7 2.2 -0.3
v -0.7 2.3 0.2
v -0.7 2.3 -0.3
v -0.6 0.7 -1.6
v -0.6 0.7 -1.7
v -0.6 0.9 -1.6
v -0.6 0.9 -1.7
v -0.5 0.3 -1.8
v -0.5 0.3 -1.9
v -0.5 0.4 -1.9
v -0.5 0.5 -1.8
v -0.5 0.5 -1.9
v -0.5 0.7 1.6
v -0.5 0.7 1.4
v -0.5 1 1.4
v -0.5 1 1.3
v -0.5 1 1.2
v -0.5 1 1
v -0.5 1.1 1.6
v -0.5 1.1 1.3
v -0.5 1.1 1.2
v -0.5 1.1 1
v -0.4 0.2 -1.4
v -0.4 0.2 -2
v -0.4 0.3 -1.8
v -0.4 0.3 -1.9
v -0.4 0.4 -1.2
v -0.4 0.4 -1.4
v -0.4 0.4 -1.9
v -0.4 0.4 -2
v -0.4 0.7 -1
v -0.4 0.7 -1.2
v -0.4 0.8 -1.8
v -0.4 0.8 -1.9
v -0.4 0.9 -1
v -0.4 0.9 -1.9
v -0.4 1.1 1.6
v -0.4 1.1 1.3
v -0.4 1.1 1.2
v -0.4 1.1 1.1
v -0.4 1.2 1.6
v -0.4 1.2 1.3
v -0.4 1.2 1.2
v -0.4 1.2 1.1
v -0.4 1.2 -0.7
v -0.4 1.2 -0.8
v -0.4 1.3 -0.7
v -0.4 1.3 -0.8
v -0.4 1.4 1.6
v -0.4 1.4 1.2
v -0.4 1.6 1.7
v -0.4 1.6 1.6
v -0.4 1.8 1.7
v -0.4 1.8 1.6
v -0.4 1.8 1.2
v -0.3 1 1.3
v -0.3 1 1.2
v -0.3 1 1
v -0.3 1 0.7
v -0.3 1.1 1
v -0.3 1.1 0.7
v -0.3 1.2 1.3
v -0.3 1.2 1.2
v -0.3 1.5 -1.5
v -0.3 1.5 -1.8
v -0.3 1.6 -1.5
v -0.3 1.6 -1.8
v -0.0999999 0.2 2
v -0.0999999 0.2 1.8
v -0.0999999 0.7 1.8
v -0.0999999 0.7 1.7
v -0.0999999 0.8 2
v -0.0999999 0.8 1.7
v -0.0999999 2.5 0.0999999
v -0.0999999 2.5 -0.1
v -0.0999999 2.6 0.0999999
v -0.0999999 2.6 -0.1
v 0.1 0.8 1.5
v 0.1 0.8 1.4
v 0.1 1 1.5
v 0.1 1 1.4
v 0.1 1.6 1.3
v 0.1 1.6 1.2
v 0.1 1.8 1.3
v 0.1 1.8 1.2
v 0.1 1.9 0.9
v 0.1 1.9 0.8
v 0.1 2.1 1
v 0.1 2.1 0.9
v 0.1 2.1 0.8
v 0.1 2.1 -0.4
v 0.1 2.1 -0.8
v 0.1 2.2 1
v 0.1 2.2 0.9
v 0.1 2.2 -0.4
v 0.1 2.2 -0.8
v 0.1 2.3 1.1
v 0.1 2.3 1
v 0.1 2.5 1.1
v 0.1 2.5 1
v 0.2 0.9 -1.5
v 0.2 0.9 -1.9
v 0.2 1.1 -1
v 0.2 1.1 -1.5
v 0.2 1.1 -1.9
v 0.2 1.1 -2
v 0.2 1.2 -1
v 0.2 1.2 -1.7
v 0.2 1.5 -1.7
v 0.2 1.5 -2
v 0.3 0.5 1.3
v 0.3 0.5 1.1
v 0.3 0.6 1.3
v 0.3 0.6 1.1
v 0.3 0.7 1.4
v 0.3 0.7 1
v 0.3 0.8 1.1
v 0.3 0.8 1
v 0.3 0.9 -1
v 0.3 0.9 -1.5
v 0.3 1 1.4
v 0.3 1 1.1
v 0.3 1.1 -1
v 0.3 1.1 -1.5
v 0.3 2.2 1
v 0.3 2.2 0.9
v 0.3 2.5 1
v 0.3 2.5 0.9
v 0.4 0.6 1.8
v 0.4 0.6 1.3
v 0.4 0.6 1.1
v 0.4 0.6 1
v 0.4 0.7 1.8
v 0.4 0.7 1
v 0.5 0.5 -1.8
v 0.5 0.5 -1.9
v 0.5 0.8 -1.8
v 0.5 0.8 -1.9
v 0.5 0.8 -2
v 0.5 0.9 -1.9
v 0.5 0.9 -2
v 0.5 1.2 1.6
v 0.5 1.2 1.1
v 0.5 1.2 -1
v 0.5 1.2 -1.7
v 0.5 1.3 -1
v 0.5 1.3 -1.5
v 0.5 1.4 1.6
v 0.5 1.4 1.2
v 0.5 1.4 1.1
v 0.5 1.6 -1.5
v 0.5 1.6 -1.7
v 0.5 1.7 -1.2
v 0.5 1.7 -1.4
v 0.5 1.8 -1.2
v 0.5 1.8 -1.4
v 0.6 0.6 1
v 0.6 0.6 0.8
v 0.6 0.8 1.1
v 0.6 0.8 1
v 0.6 1 1.1
v 0.6 1 0.8
v 0.6 1.2 -0.7
v 0.6 1.2 -1
v 0.6 1.3 -1
v 0.6 1.3 -1.5
v 0.6 1.4 -0.7
v 0.6 1.4 -1.2
v 0.6 1.7 -1.2
v 0.6 1.7 -1.5
v 0.6 1.8 -0.5
v 0.6 1.8 -1.1
v 0.6 1.9 -0.2
v 0.6 1.9 -0.5
v 0.6 2 -2.38419e-007
v 0.6 2 -0.2
v 0.6 2.1 -2.38419e-007
v 0.6 2.1 -0.4
v 0.6 2.1 -1.1
v 0.6 2.4 0.9
v 0.6 2.4 0.5
v 0.6 2.5 0.9
v 0.6 2.5 0.5
v 0.7 0 1.8
v 0.7 0 1.5
v 0.7 0.1 -1.8
v 0.7 0.1 -2
v 0.7 0.3 -1.9
v 0.7 0.3 -2
v 0.7 0.5 1.5
v 0.7 0.5 1.3
v 0.7 0.5 -1.8
v 0.7 0.5 -1.9
v 0.7 0.6 1.8
v 0.7 0.6 1.3
v 0.7 0.6 0.8
v 0.7 0.6 0.7
v 0.7 0.8 -1.8
v 0.7 0.8 -1.9
v 0.7 0.9 -1.8
v 0.7 0.9 -1.9
v 0.7 1 0.8
v 0.7 1 0.7
v 0.7 1.4 1.2
v 0.7 1.4 1.1
v 0.7 1.4 -0.7
v 0.7 1.4 -1.2
v 0.7 1.6 1.2
v 0.7 1.6 1.1
v 0.7 1.6 -0.6
v 0.7 1.6 -0.7
v 0.7 1.8 -0.6
v 0.7 1.8 -1.2
v 0.8 0.6 -0.6
v 0.8 0.6 -1.8
v 0.8 0.7 -1.3
v 0.8 0.7 -1.5
v 0.8 0.9 -1
v 0.8 0.9 -1.3
v 0.8 0.9 -1.5
v 0.8 0.9 -1.8
v 0.8 1 -0.6
v 0.8 1 -0.7
v 0.8 1.2 -0.7
v 0.8 1.2 -1
v 0.8 2.1 0.9
v 0.8 2.1 0.8
v 0.8 2.1 -2.38419e-007
v 0.8 2.1 -0.4
v 0.8 2.2 0.8
v 0.8 2.2 0.5
v 0.8 2.2 -2.38419e-007
v 0.8 2.2 -0.4
v 0.8 2.4 0.9
v 0.8 2.4 0.5
v 0.9 1.6 1.2
v 0.9 1.6 1.1
v 0.9 1.8 1.2
v 0.9 1.8 1.1
v 1 0.6 0.7
v 1 0.6 0.6
v 1 1 1.1
v 1 1 0.7
v 1 1 0.6
v 1 1.7 0.8
v 1 1.7 0.7
v 1 1.8 -0.2
v 1 1.8 -0.5
v 1 1.9 1.1
v 1 1.9 0.8
v 1 1.9 -0.2
v 1 1.9 -0.5
v 1.1 0 1.5
v 1.1 0 1.4
v 1.1 0.5 1.5
v 1.1 0.5 1.4
v 1.1 0.5 -1.8
v 1.1 0.5 -1.9
v 1.1 0.7 -1.8
v 1.1 0.7 -1.9
v 1.1 2.5 -0.1
v 1.1 2.5 -0.3
v 1.1 2.6 -0.1
v 1.1 2.6 -0.3
v 1.2 0.1 0.5
v 1.2 0.1 -2.38419e-007
v 1.2 0.1 -0.7
v 1.2 0.1 -1.5
v 1.2 0.1 -1.8
v 1.2 0.5 -0.7
v 1.2 0.5 -1.8
v 1.2 0.6 0.5
v 1.2 0.6 0.4
v 1.2 0.6 0.2
v 1.2 0.6 -2.38419e-007
v 1.2 0.6 -0.1
v 1.2 0.6 -0.2
v 1.2 0.6 -0.4
v 1.2 0.6 -0.6
v 1.2 0.7 0.4
v 1.2 0.7 0.2
v 1.2 0.7 -0.1
v 1.2 0.7 -0.2
v 1.2 0.7 -0.4
v 1.2 0.7 -0.6
v 1.2 1 0.7
v 1.2 1 0.6
v 1.2 1 -0.6
v 1.2 1 -0.7
v 1.2 1.2 0.7
v 1.2 1.2 0.6
v 1.2 1.6 -0.6
v 1.2 1.6 -0.7
v 1.2 1.7 0.8
v 1.2 1.7 0.7
v 1.2 2 0.7
v 1.2 2 -2.38419e-007
v 1.2 2.2 0.8
v 1.2 2.2 0.5
v 1.2 2.2 -2.38419e-007
v 1.2 2.2 -0.4
v 1.2 2.3 0.4
v 1.2 2.3 0.2
v 1.2 2.5 0.5
v 1.2 2.5 0.4
v 1.2 2.5 0.2
v 1.2 2.5 -0.4
v 1.3 0 0.5
v 1.3 0 -0.2
v 1.3 0 -0.4
v 1.3 0 -1.5
v 1.3 0.1 0.5
v 1.3 0.1 -0.2
v 1.3 0.1 -0.4
v 1.3 0.1 -0.7
v 1.3 0.1 -1.5
v 1.3 0.7 0.6
v 1.3 0.7 0.5
v 1.3 0.8 0.6
v 1.3 0.8 0.5
v 1.3 2.3 0.4
v 1.3 2.3 0.2
v 1.3 2.5 0.4
v 1.3 2.5 0.2
v 1.4 0.1 1.5
v 1.4 0.1 1.4
v 1.4 0.5 -1.5
v 1.4 0.5 -1.8
v 1.4 0.6 -1.5
v 1.4 0.6 -1.8
v 1.4 0.7 1.5
v 1.4 0.7 1.4
v 1.5 0 -0.2
v 1.5 0 -0.4
v 1.5 0.1 -0.2
v 1.5 0.1 -0.4
v 1.5 0.5 -1.4
v 1.5 0.5 -1.5
v 1.5 0.6 -1.5
v 1.5 0.6 -1.8
v 1.5 0.7 -0.6
v 1.5 0.7 -1.3
v 1.5 1 -1.3
v 1.5 1 -1.4
v 1.5 1 -1.8
v 1.5 1 -2
v 1.5 1.1 -0.6
v 1.5 1.1 -1.1
v 1.5 1.1 -1.3
v 1.5 1.1 -2
v 1.5 1.2 0.7
v 1.5 1.2 0.6
v 1.5 1.2 -1.1
v 1.5 1.2 -1.3
v 1.5 2 0.7
v 1.5 2 0.6
v 1.6 0.1 -0.5
v 1.6 0.1 -0.7
v 1.6 0.5 -0.7
v 1.6 0.5 -1.4
v 1.6 0.6 -0.5
v 1.6 0.6 -1.4
v 1.6 0.7 -1.3
v 1.6 0.7 -1.4
v 1.6 1 -1.3
v 1.6 1 -1.4
v 1.7 0.2 -0.1
v 1.7 0.2 -0.5
v 1.7 0.6 -0.1
v 1.7 0.6 -0.5
v 1.7 0.6 -0.7
v 1.7 0.6 -1.4
v 1.7 0.7 -0.7
v 1.7 0.7 -1.4
v 1.7 0.8 0.6
v 1.7 0.8 0.5
v 1.7 1.8 0.5
v 1.7 1.8 -0.2
v 1.7 2 0.6
v 1.7 2 -0.2
v 1.8 0 1.4
v 1.8 0 0.5
v 1.8 0.1 1.4
v 1.8 0.1 1.3
v 1.8 0.1 0.5
v 1.8 0.1 0.0999999
v 1.8 0.4 1.3
v 1.8 0.4 0.0999999
v 1.8 0.7 0.5
v 1.8 0.7 -0.6
v 1.8 1.1 -0.3
v 1.8 1.1 -0.5
v 1.8 1.3 -0.3
v 1.8 1.3 -0.5
v 1.8 1.5 0.4
v 1.8 1.5 0.2
v 1.8 1.7 0.4
v 1.8 1.7 0.2
v 1.8 1.8 0.5
v 1.8 1.8 -0.6
v 1.9 0.1 1.5
v 1.9 0.1 1.3
v 1.9 0.1 0.0999999
v 1.9 0.1 -0.5
v 1.9 0.2 -0.1
v 1.9 0.2 -0.5
v 1.9 0.4 1.3
v 1.9 0.4 0.0999999
v 1.9 0.6 -0.1
v 1.9 0.6 -0.9
v 1.9 0.7 1.5
v 1.9 0.7 -0.9
v 1.9 1.1 -0.3
v 1.9 1.1 -0.5
v 1.9 1.3 -0.3
v 1.9 1.3 -0.5
v 1.9 1.5 0.4
v 1.9 1.5 0.2
v 1.9 1.7 0.4
v 1.9 1.7 0.2
v -1.3 0 2
v -1.3 0.2 2
v -1.3 0.8 2
v -1.3 1 2
v -0.8 0 2
v -0.8 0.2 2
v -0.8 0.8 2
v -0.8 1 2
v -0.3 0.2 2
v -0.3 0.8 2
v -0.0999999 0.2 2
v -0.0999999 0.8 2
v -1.3 0.2 1.9
v -1.3 0.8 1.9
v -0.8 0.2 1.9
v -0.8 0.8 1.9
v -0.3 0.2 1.9
v -0.3 0.8 1.9
v -0.8 0 1.8
v -0.8 0.2 1.8
v -0.0999999 0.2 1.8
v -0.0999999 0.7 1.8
v 0.4 0.6 1.8
v 0.4 0.7 1.8
v 0.7 0 1.8
v 0.7 0.6 1.8
v -0.6 1.6 1.7
v -0.6 1.8 1.7
v -0.4 1.6 1.7
v -0.4 1.8 1.7
v -1 1 1.6
v -1 1.1 1.6
v -0.8 0.7 1.6
v -0.8 1 1.6
v -0.8 1.1 1.6
v -0.8 1.8 1.6
v -0.6 1.6 1.6
v -0.6 1.8 1.6
v -0.5 0.7 1.6
v -0.5 1.1 1.6
v -0.4 1.1 1.6
v -0.4 1.2 1.6
v -0.4 1.4 1.6
v -0.4 1.6 1.6
v 0.5 1.2 1.6
v 0.5 1.4 1.6
v -0.0999999 0.8 1.5
v -0.0999999 1 1.5
v 0.1 0.8 1.5
v 0.1 1 1.5
v 0.7 0 1.5
v 0.7 0.5 1.5
v 1.1 0 1.5
v 1.1 0.5 1.5
v 1.3 0.1 1.5
v 1.3 0.7 1.5
v 1.4 0.1 1.5
v 1.4 0.7 1.5
v 1.7 0.1 1.5
v 1.7 0.7 1.5
v 1.9 0.1 1.5
v 1.9 0.7 1.5
v -0.5 0.7 1.4
v -0.5 1 1.4
v -0.0999999 0.8 1.4
v -0.0999999 1 1.4
v 0.1 0.8 1.4
v 0.1 1 1.4
v 0.3 0.7 1.4
v 0.3 1 1.4
v 0.9 0.5 1.4
v 0.9 0.6 1.4
v 1.1 0 1.4
v 1.1 0.5 1.4
v 1.3 0.1 1.4
v 1.3 0.6 1.4
v 1.4 0.1 1.4
v 1.4 0.7 1.4
v 1.7 0.1 1.4
v 1.7 0.7 1.4
v 1.8 0 1.4
v 1.8 0.1 1.4
v -0.5 1 1.3
v -0.5 1.1 1.3
v -0.4 1.1 1.3
v -0.4 1.2 1.3
v -0.3 1 1.3
v -0.3 1.2 1.3
v -0.0999999 1.6 1.3
v -0.0999999 1.8 1.3
v 0.1 1.6 1.3
v 0.1 1.8 1.3
v -1.3 1 1.2
v -1.3 1.2 1.2
v -1.1 1 1.2
v -1 1 1.2
v -1 1.1 1.2
v -0.9 1.1 1.2
v -0.9 1.2 1.2
v -0.9 1.4 1.2
v -0.9 1.8 1.2
v -0.8 1.4 1.2
v -0.8 1.8 1.2
v -0.4 1.4 1.2
v -0.4 1.8 1.2
v -0.0999999 1.6 1.2
v -0.0999999 1.8 1.2
v 0.1 1.6 1.2
v 0.1 1.8 1.2
v 0.5 1.4 1.2
v 0.7 1.4 1.2
v 0.7 1.6 1.2
v 0.7 1.8 1.2
v 0.9 1.6 1.2
v 0.9 1.8 1.2
v -1.7 0 1.1
v -1.7 0.1 1.1
v -1.1 0.1 1.1
v -1.1 0.4 1.1
v -1 0 1.1
v -1 0.4 1.1
v -0.7 1.8 1.1
v -0.7 1.9 1.1
v -0.4 1.1 1.1
v -0.4 1.2 1.1
v -0.0999999 2.3 1.1
v -0.0999999 2.5 1.1
v 0.1 2.3 1.1
v 0.1 2.5 1.1
v 0.2 1 1.1
v 0.2 1.1 1.1
v 0.3 0.5 1.1
v 0.3 0.6 1.1
v 0.3 0.8 1.1
v 0.3 1 1.1
v 0.4 0.6 1.1
v 0.5 1.2 1.1
v 0.5 1.4 1.1
v 0.6 0.8 1.1
v 0.6 1 1.1
v 0.7 1.4 1.1
v 0.7 1.6 1.1
v 0.7 1.8 1.1
v 0.9 0.5 1.1
v 0.9 0.6 1.1
v 0.9 1.6 1.1
v 0.9 1.8 1.1
v 1 1 1.1
v 1 1.9 1.1
v -1.2 1.6 1
v -1.2 1.8 1
v -1 1.6 1
v -1 1.8 1
v -0.9 1.1 1
v -0.9 1.2 1
v -0.9 1.4 1
v -0.9 2 1
v -0.9 2.3 1
v -0.8 1.1 1
v -0.8 1.4 1
v -0.8 2 1
v -0.8 2.3 1
v -0.6 2.1 1
v -0.6 2.3 1
v -0.5 1 1
v -0.5 1.1 1
v -0.4 2.3 1
v -0.4 2.5 1
v -0.3 1 1
v -0.3 1.1 1
v -0.0999999 2.3 1
v -0.0999999 2.5 1
v 0.1 2.1 1
v 0.1 2.2 1
v 0.1 2.3 1
v 0.1 2.5 1
v 0.3 0.7 1
v 0.3 0.8 1
v 0.3 2.2 1
v 0.3 2.5 1
v 0.4 0.6 1
v 0.4 0.7 1
v 0.6 0.6 1
v 0.6 0.8 1
v -1.8 1.3 0.9
v -1.8 1.7 0.9
v -1.4 1.7 0.9
v -1.4 2.2 0.9
v -1.2 1.6 0.9
v -1.2 1.8 0.9
v -1 1.2 0.9
v -1 1.3 0.9
v -1 1.6 0.9
v -1 1.8 0.9
v -0.9 1.2 0.9
v -0.9 1.8 0.9
v -0.9 2 0.9
v -0.9 2.2 0.9
v -0.8 2 0.9
v -0.8 2.2 0.9
v -0.7 1.8 0.9
v -0.7 1.9 0.9
v -0.6 2.1 0.9
v -0.6 2.2 0.9
v 0.1 1.9 0.9
v 0.1 2.1 0.9
v 0.1 2.2 0.9
v 0.3 2.2 0.9
v 0.3 2.5 0.9
v 0.6 2.4 0.9
v 0.6 2.5 0.9
v 0.8 2.1 0.9
v 0.8 2.4 0.9
v -1.4 0.1 0.8
v -1.4 0.7 0.8
v -1.1 0.1 0.8
v -1.1 0.4 0.8
v -1.1 0.6 0.8
v -1.1 0.7 0.8
v -1 0.4 0.8
v -1 0.6 0.8
v -0.9 1 0.8
v -0.9 1.1 0.8
v -0.6 1 0.8
v -0.6 1.1 0.8
v -0.0999999 1 0.8
v -0.0999999 1.1 0.8
v 0.1 1.9 0.8
v 0.1 2.1 0.8
v 0.2 1 0.8
v 0.2 1.1 0.8
v 0.6 0.6 0.8
v 0.6 1 0.8
v 0.7 0.6 0.8
v 0.7 1 0.8
v 0.8 2.1 0.8
v 0.8 2.2 0.8
v 1 1.7 0.8
v 1 1.9 0.8
v 1.2 1.7 0.8
v 1.2 2.2 0.8
v -0.3 1 0.7
v -0.3 1.1 0.7
v -0.0999999 1 0.7
v -0.0999999 1.1 0.7
v 0.7 0.6 0.7
v 0.7 1 0.7
v 1 0.6 0.7
v 1 1 0.7
v 1 1.7 0.7
v 1.2 1 0.7
v 1.2 1.2 0.7
v 1.2 1.7 0.7
v 1.2 2 0.7
v 1.5 1.2 0.7
v 1.5 2 0.7
v 1 0.6 0.6
v 1 1 0.6
v 1.2 1 0.6
v 1.2 1.2 0.6
v 1.3 0.6 0.6
v 1.3 0.7 0.6
v 1.3 0.8 0.6
v 1.5 1.2 0.6
v 1.5 2 0.6
v 1.7 0.8 0.6
v 1.7 2 0.6
v -1.7 1.7 0.5
v -1.7 2.3 0.5
v -1.4 1.7 0.5
v -1.4 2.2 0.5
v -1.1 2.2 0.5
v -1.1 2.3 0.5
v 0.6 2.4 0.5
v 0.6 2.5 0.5
v 0.8 2.2 0.5
v 0.8 2.4 0.5
v 1.2 2.2 0.5
v 1.2 2.5 0.5
v 1.3 0.7 0.5
v 1.3 0.8 0.5
v 1.7 0.8 0.5
v 1.7 1.8 0.5
v 1.8 0.7 0.5
v 1.8 1.8 0.5
v -1.8 1.9 0.4
v -1.8 2.1 0.4
v -1.7 1.9 0.4
v -1.7 2.1 0.4
v -1.5 0.3 0.4
v -1.5 0.5 0.4
v -1.4 0.3 0.4
v -1.4 0.5 0.4
v -1.3 0.7 0.4
v -1.3 1 0.4
v -1.1 0.7 0.4
v -1.1 1 0.4
v 1.2 2.3 0.4
v 1.2 2.5 0.4
v 1.3 2.3 0.4
v 1.3 2.5 0.4
v 1.8 1.5 0.4
v 1.8 1.7 0.4
v 1.9 1.5 0.4
v 1.9 1.7 0.4
v -1.5 0.6 0.3
v -1.5 1.3 0.3
v -1.4 0.6 0.3
v -1.4 0.7 0.3
v -1.4 1.3 0.3
v -1.4 0.7 0.2
v -1.4 1.3 0.2
v -1.3 0.7 0.2
v -1.3 1.2 0.2
v -1.1 1.2 0.2
v -1.1 1.3 0.2
v -0.9 2.2 0.2
v -0.9 2.3 0.2
v -0.7 2.2 0.2
v -0.7 2.3 0.2
v 1.2 0.6 0.2
v 1.2 0.7 0.2
v 1.3 0.6 0.2
v 1.3 0.7 0.2
v -1.1 1.1 0.0999999
v -1.1 1.3 0.0999999
v -1 1.1 0.0999999
v -1 1.3 0.0999999
v -0.3 2.5 0.0999999
v -0.3 2.6 0.0999999
v -0.0999999 2.5 0.0999999
v -0.0999999 2.6 0.0999999
v 1.8 0.1 0.0999999
v 1.8 0.4 0.0999999
v 1.9 0.1 0.0999999
v 1.9 0.4 0.0999999
v 1.2 0.1 -2.38419e-007
v 1.2 0.6 -2.38419e-007
v 1.3 0.1 -2.38419e-007
v 1.3 0.6 -2.38419e-007
v 0.9 2.5 -0.1
v 0.9 2.6 -0.1
v 1.1 2.5 -0.1
v 1.1 2.6 -0.1
v 1.2 0.6 -0.2
v 1.2 0.7 -0.2
v 1.3 0 -0.2
v 1.3 0.1 -0.2
v 1.3 0.6 -0.2
v 1.3 0.7 -0.2
v 1.5 0 -0.2
v 1.5 0.1 -0.2
v 1.8 1.1 -0.3
v 1.8 1.3 -0.3
v 1.9 1.1 -0.3
v 1.9 1.3 -0.3
v -1.1 1.2 -0.4
v -1.1 1.3 -0.4
v -1 1.2 -0.4
v -1 1.3 -0.4
v -1.8 1.5 -0.5
v -1.8 1.7 -0.5
v -1.7 1.5 -0.5
v -1.7 1.7 -0.5
v -1.5 2.3 -0.5
v -1.5 2.4 -0.5
v -1.3 2.3 -0.5
v -1.3 2.4 -0.5
v -1.9 0.2 -0.6
v -1.9 1.3 -0.6
v -1.7 1.3 -0.6
v -1.5 0.9 -0.6
v -1.5 1.3 -0.6
v -1.4 0.2 -0.6
v -1.4 0.9 -0.6
v -1.1 1 -0.6
v -1.1 1.2 -0.6
v -0.8 1 -0.6
v -0.8 1.2 -0.6
v -0.4 1.2 -0.8
v -0.4 1.3 -0.8
v -0.2 1.2 -0.8
v -0.2 1.3 -0.8
v -2 1.3 -0.9
v -2 1.4 -0.9
v -1.9 1.3 -0.9
v -1.8 1.4 -0.9
v -1.8 1.7 -0.9
v -1.7 1.3 -0.9
v -1.7 1.7 -0.9
v -1.9 0.7 -1.1
v -1.9 0.9 -1.1
v -1.8 0.7 -1.1
v -1.8 0.9 -1.1
v 1.3 1.1 -1.1
v 1.3 1.2 -1.1
v 1.5 1.1 -1.1
v 1.5 1.2 -1.1
v 0.5 0.9 -1.3
v 0.5 1 -1.3
v 0.8 0.7 -1.3
v 0.8 0.9 -1.3
v 1.3 0.7 -1.3
v 1.3 1 -1.3
v 1.5 0.7 -1.3
v 1.5 1 -1.3
v 1.6 0.7 -1.3
v 1.6 1 -1.3
v -1.9 0.2 -1.4
v -1.9 1.1 -1.4
v -1.8 0.5 -1.4
v -1.8 1.1 -1.4
v -1.7 0 -1.4
v -1.7 0.1 -1.4
v -1.6 0 -1.4
v -1.6 0.1 -1.4
v -1.6 0.2 -1.4
v -1.6 0.5 -1.4
v 0.9 0.6 -1.5
v 0.9 0.7 -1.5
v 1.3 0.6 -1.5
v 1.3 0.7 -1.5
v -1 1.6 -1.6
v -1 1.7 -1.6
v -0.8 1.6 -1.6
v -0.8 1.7 -1.6
v -0.5 0.3 -1.9
v -0.5 0.4 -1.9
v -0.4 0.3 -1.9
v -0.4 0.4 -1.9
v -0.8 0.7 1.7
v -0.8 0.8 1.7
v -0.0999999 0.7 1.7
v -0.0999999 0.8 1.7
v -1.3 0 1.6
v -1.3 1 1.6
v -1.2 0 1.6
v -1.2 0.6 1.6
v -1.1 0.6 1.6
v -1.1 1 1.6
v -1.2 0 1.3
v -1.2 0.6 1.3
v -1.1 0.6 1.3
v -1 0 1.3
v -1 0.6 1.3
v 0.3 0.5 1.3
v 0.3 0.6 1.3
v 0.4 0.6 1.3
v 0.7 0.5 1.3
v 0.7 0.6 1.3
v 1.8 0.1 1.3
v 1.8 0.4 1.3
v 1.9 0.1 1.3
v 1.9 0.4 1.3
v -0.5 1 1.2
v -0.5 1.1 1.2
v -0.4 1.1 1.2
v -0.4 1.2 1.2
v -0.3 1 1.2
v -0.3 1.2 1.2
v -0.9 1 0.9
v -0.9 1.1 0.9
v -0.6 1 0.9
v -0.6 1.1 0.9
v -1.8 1.3 0.6
v -1.8 1.7 0.6
v -1.7 1.3 0.6
v -1.7 1.7 0.6
v 1.2 0.1 0.5
v 1.2 0.6 0.5
v 1.3 0 0.5
v 1.3 0.1 0.5
v 1.3 0.6 0.5
v 1.8 0 0.5
v 1.8 0.1 0.5
v -0.9 2.2 0.4
v -0.9 2.3 0.4
v -0.8 2.2 0.4
v -0.8 2.3 0.4
v 1.2 0.6 0.4
v 1.2 0.7 0.4
v 1.3 0.6 0.4
v 1.3 0.7 0.4
v -1.8 1.9 0.2
v -1.8 2.1 0.2
v -1.7 1.9 0.2
v -1.7 2.1 0.2
v -1.5 0.3 0.2
v -1.5 0.5 0.2
v -1.4 0.3 0.2
v -1.4 0.5 0.2
v -1.1 1 0.2
v -1.1 1.2 0.2
v -1 1 0.2
v -1 1.2 0.2
v 1.2 2.3 0.2
v 1.2 2.5 0.2
v 1.3 2.3 0.2
v 1.3 2.5 0.2
v 1.8 1.5 0.2
v 1.8 1.7 0.2
v 1.9 1.5 0.2
v 1.9 1.7 0.2
v -0.4 2.4 0.0999999
v -0.4 2.5 0.0999999
v -0.3 2.4 0.0999999
v -0.3 2.5 0.0999999
v 0.6 2 -2.38419e-007
v 0.6 2.1 -2.38419e-007
v 0.8 2.1 -2.38419e-007
v 0.8 2.2 -2.38419e-007
v 1.2 2 -2.38419e-007
v 1.2 2.2 -2.38419e-007
v -0.3 2.5 -0.1
v -0.3 2.6 -0.1
v -0.0999999 2.5 -0.1
v -0.0999999 2.6 -0.1
v 1.2 0.6 -0.1
v 1.2 0.7 -0.1
v 1.3 0.6 -0.1
v 1.3 0.7 -0.1
v 1.7 0.2 -0.1
v 1.7 0.6 -0.1
v 1.9 0.2 -0.1
v 1.9 0.6 -0.1
v -1.5 0.6 -0.2
v -1.5 0.9 -0.2
v -1.4 0.6 -0.2
v -1.4 0.9 -0.2
v -1.1 1.1 -0.2
v -1.1 1.3 -0.2
v -1 1.1 -0.2
v -1 1.3 -0.2
v -0.3 2.4 -0.2
v -0.3 2.5 -0.2
v 0.3 2.4 -0.2
v 0.3 2.5 -0.2
v 0.6 1.9 -0.2
v 0.6 2 -0.2
v 1 1.8 -0.2
v 1 1.9 -0.2
v 1.7 1.8 -0.2
v 1.7 2 -0.2
v -0.9 2.2 -0.3
v -0.9 2.3 -0.3
v -0.7 2.2 -0.3
v -0.7 2.3 -0.3
v 0.9 2.5 -0.3
v 0.9 2.6 -0.3
v 1.1 2.5 -0.3
v 1.1 2.6 -0.3
v -1 1 -0.4
v -1 1.2 -0.4
v -0.8 1 -0.4
v -0.8 1.2 -0.4
v -0.6 2.2 -0.4
v -0.6 2.3 -0.4
v -0.4 2.3 -0.4
v -0.4 2.4 -0.4
v 0.1 2.1 -0.4
v 0.1 2.2 -0.4
v 0.3 2.4 -0.4
v 0.3 2.5 -0.4
v 0.6 2.1 -0.4
v 0.8 2.1 -0.4
v 0.8 2.2 -0.4
v 1.2 0.6 -0.4
v 1.2 0.7 -0.4
v 1.2 2.2 -0.4
v 1.2 2.5 -0.4
v 1.3 0 -0.4
v 1.3 0.1 -0.4
v 1.3 0.6 -0.4
v 1.3 0.7 -0.4
v 1.5 0 -0.4
v 1.5 0.1 -0.4
v 0.6 1.8 -0.5
v 0.6 1.9 -0.5
v 1 1.8 -0.5
v 1 1.9 -0.5
v 1.6 0.1 -0.5
v 1.6 0.6 -0.5
v 1.7 0.2 -0.5
v 1.7 0.6 -0.5
v 1.8 1.1 -0.5
v 1.8 1.3 -0.5
v 1.9 0.1 -0.5
v 1.9 0.2 -0.5
v 1.9 1.1 -0.5
v 1.9 1.3 -0.5
v 0.7 1.6 -0.6
v 0.7 1.8 -0.6
v 0.8 0.6 -0.6
v 0.8 1 -0.6
v 1.2 0.6 -0.6
v 1.2 0.7 -0.6
v 1.2 1 -0.6
v 1.2 1.6 -0.6
v 1.3 0.7 -0.6
v 1.3 1.1 -0.6
v 1.5 0.7 -0.6
v 1.5 1.1 -0.6
v 1.8 0.7 -0.6
v 1.8 1.8 -0.6
v -1.8 1.5 -0.7
v -1.8 1.7 -0.7
v -1.7 1.5 -0.7
v -1.7 1.7 -0.7
v -1.5 2.3 -0.7
v -1.5 2.4 -0.7
v -1.3 2.3 -0.7
v -1.3 2.4 -0.7
v -0.4 1.2 -0.7
v -0.4 1.3 -0.7
v -0.2 1.2 -0.7
v -0.2 1.3 -0.7
v 0.6 1.2 -0.7
v 0.6 1.4 -0.7
v 0.7 1.4 -0.7
v 0.7 1.6 -0.7
v 0.8 1 -0.7
v 0.8 1.2 -0.7
v 1.2 0.1 -0.7
v 1.2 0.5 -0.7
v 1.2 1 -0.7
v 1.2 1.6 -0.7
v 1.3 0.1 -0.7
v 1.6 0.1 -0.7
v 1.6 0.5 -0.7
v 1.7 0.6 -0.7
v 1.7 0.7 -0.7
v 1.8 0.6 -0.7
v 1.8 0.7 -0.7
v -1.1 1.7 -0.8
v -1.1 2.2 -0.8
v -0.9 1.7 -0.8
v -0.9 1.8 -0.8
v -0.8 1.8 -0.8
v -0.8 2.1 -0.8
v 0.1 2.1 -0.8
v 0.1 2.2 -0.8
v -1.7 1.7 -0.9
v -1.7 2.3 -0.9
v -1.1 1.7 -0.9
v -1.1 2.3 -0.9
v 1.8 0.6 -0.9
v 1.8 0.7 -0.9
v 1.9 0.6 -0.9
v 1.9 0.7 -0.9
v -1.9 0.2 -1
v -1.9 1.1 -1
v -1.8 0.5 -1
v -1.8 1.1 -1
v -1.7 0 -1
v -1.7 0.1 -1
v -1.6 0 -1
v -1.6 0.1 -1
v -1.6 0.2 -1
v -1.6 0.5 -1
v -0.4 0.7 -1
v -0.4 0.9 -1
v 2.38419e-007 0.7 -1
v 2.38419e-007 0.9 -1
v 0.2 1.1 -1
v 0.2 1.2 -1
v 0.3 0.9 -1
v 0.3 1.1 -1
v 0.5 1.2 -1
v 0.5 1.3 -1
v 0.6 1.2 -1
v 0.6 1.3 -1
v 0.8 0.9 -1
v 0.8 1.2 -1
v -2 1.3 -1.1
v -2 1.4 -1.1
v -1.9 1.3 -1.1
v -1.8 1.3 -1.1
v -1.8 1.4 -1.1
v -0.8 1.8 -1.1
v -0.8 2.1 -1.1
v 0.6 1.8 -1.1
v 0.6 2.1 -1.1
v -1.4 0.1 -1.2
v -1.4 0.2 -1.2
v -1 0.1 -1.2
v -1 0.2 -1.2
v -0.9 1.7 -1.2
v -0.9 1.8 -1.2
v -0.4 0.4 -1.2
v -0.4 0.7 -1.2
v 2.38419e-007 0.4 -1.2
v 2.38419e-007 0.7 -1.2
v 0.3 1.7 -1.2
v 0.3 1.8 -1.2
v 0.5 1.7 -1.2
v 0.5 1.8 -1.2
v 0.6 1.4 -1.2
v 0.6 1.7 -1.2
v 0.7 1.4 -1.2
v 0.7 1.8 -1.2
v -1.9 0.7 -1.3
v -1.9 0.9 -1.3
v -1.8 0.7 -1.3
v -1.8 0.9 -1.3
v 1.3 1.1 -1.3
v 1.3 1.2 -1.3
v 1.5 1.1 -1.3
v 1.5 1.2 -1.3
v -1 0.1 -1.4
v -1 0.2 -1.4
v -0.4 0.2 -1.4
v -0.4 0.4 -1.4
v 2.38419e-007 0.1 -1.4
v 2.38419e-007 0.4 -1.4
v 0.3 1.7 -1.4
v 0.3 1.8 -1.4
v 0.5 1.7 -1.4
v 0.5 1.8 -1.4
v 1.5 0.5 -1.4
v 1.5 1 -1.4
v 1.6 0.5 -1.4
v 1.6 0.6 -1.4
v 1.6 0.7 -1.4
v 1.6 1 -1.4
v 1.7 0.6 -1.4
v 1.7 0.7 -1.4
v -1.8 1.3 -1.5
v -1.8 1.7 -1.5
v -1.7 0 -1.5
v -1.7 0.1 -1.5
v -1.6 1.3 -1.5
v -1.6 1.5 -1.5
v -1.3 1.5 -1.5
v -1.3 1.6 -1.5
v -0.3 1.5 -1.5
v -0.3 1.6 -1.5
v -0.0999999 1.5 -1.5
v -0.0999999 1.6 -1.5
v 2.38419e-007 0.1 -1.5
v 0.2 0.9 -1.5
v 0.2 1.1 -1.5
v 0.3 0.9 -1.5
v 0.3 1.1 -1.5
v 0.5 0.9 -1.5
v 0.5 1 -1.5
v 0.5 1.3 -1.5
v 0.5 1.6 -1.5
v 0.6 1.3 -1.5
v 0.6 1.7 -1.5
v 0.8 0.7 -1.5
v 0.8 0.9 -1.5
v 0.9 0.7 -1.5
v 0.9 1 -1.5
v 1.2 0.1 -1.5
v 1.3 0 -1.5
v 1.3 0.1 -1.5
v 1.4 0.5 -1.5
v 1.4 0.6 -1.5
v 1.5 0.5 -1.5
v 1.5 0.6 -1.5
v -1.9 0.2 -1.6
v -1.9 1.3 -1.6
v -1.8 0.2 -1.6
v -1.8 1.3 -1.6
v -1 0.5 -1.6
v -1 1.1 -1.6
v -0.8 0.7 -1.6
v -0.8 0.9 -1.6
v -0.6 0.7 -1.6
v -0.6 0.9 -1.6
v -0.5 0.5 -1.6
v -0.5 1.1 -1.6
v -1.7 0.3 -1.7
v -1.7 0.9 -1.7
v -1 0.5 -1.7
v -1 0.9 -1.7
v -0.9 0.3 -1.7
v -0.9 0.5 -1.7
v -0.8 0.7 -1.7
v -0.8 0.9 -1.7
v -0.6 0.7 -1.7
v -0.6 0.9 -1.7
v -0.0999999 1.5 -1.7
v -0.0999999 1.6 -1.7
v 0.2 1.2 -1.7
v 0.2 1.5 -1.7
v 0.5 1.2 -1.7
v 0.5 1.6 -1.7
v -1.3 1.5 -1.8
v -1.3 1.6 -1.8
v -1.2 0.9 -1.8
v -1.2 1 -1.8
v -1 0.9 -1.8
v -1 1 -1.8
v -1 1.6 -1.8
v -1 1.7 -1.8
v -0.8 1.6 -1.8
v -0.8 1.7 -1.8
v -0.5 0.3 -1.8
v -0.5 0.5 -1.8
v -0.5 0.8 -1.8
v -0.4 0.3 -1.8
v -0.4 0.8 -1.8
v -0.3 1.5 -1.8
v -0.3 1.6 -1.8
v 2.38419e-007 0.3 -1.8
v 2.38419e-007 0.8 -1.8
v 0.3 0.3 -1.8
v 0.3 0.8 -1.8
v 0.5 0.5 -1.8
v 0.5 0.8 -1.8
v 0.7 0.1 -1.8
v 0.7 0.5 -1.8
v 0.7 0.8 -1.8
v 0.7 0.9 -1.8
v 0.8 0.6 -1.8
v 0.8 0.9 -1.8
v 0.9 0.5 -1.8
v 0.9 0.6 -1.8
v 0.9 0.7 -1.8
v 0.9 1 -1.8
v 1.1 0.5 -1.8
v 1.1 0.7 -1.8
v 1.2 0.1 -1.8
v 1.2 0.5 -1.8
v 1.3 1 -1.8
v 1.4 0.5 -1.8
v 1.4 0.6 -1.8
v 1.5 0.6 -1.8
v 1.5 1 -1.8
v -1.4 0.9 -1.9
v -1.4 1.3 -1.9
v -1.2 0.9 -1.9
v -1.2 1 -1.9
v -1 1 -1.9
v -1 1.1 -1.9
v -0.9 0.4 -1.9
v -0.9 0.5 -1.9
v -0.5 0.4 -1.9
v -0.5 0.5 -1.9
v -0.5 0.8 -1.9
v -0.5 1.1 -1.9
v -0.5 1.3 -1.9
v -0.4 0.8 -1.9
v -0.4 0.9 -1.9
v 2.38419e-007 0.8 -1.9
v 2.38419e-007 0.9 -1.9
v 0.2 0.9 -1.9
v 0.2 1.1 -1.9
v 0.3 0.3 -1.9
v 0.3 0.8 -1.9
v 0.4 0.8 -1.9
v 0.4 0.9 -1.9
v 0.5 0.5 -1.9
v 0.5 0.8 -1.9
v 0.5 0.9 -1.9
v 0.7 0.3 -1.9
v 0.7 0.5 -1.9
v 0.7 0.8 -1.9
v 0.7 0.9 -1.9
v 0.9 0.5 -1.9
v 0.9 0.7 -1.9
v 1.1 0.5 -1.9
v 1.1 0.7 -1.9
v -1.8 0.2 -2
v -1.8 1.3 -2
v -1.7 0.3 -2
v -1.7 0.9 -2
v -1.6 1.3 -2
v -1.6 1.5 -2
v -1.4 0.9 -2
v -1.4 1.3 -2
v -0.9 0.3 -2
v -0.9 0.4 -2
v -0.5 1.1 -2
v -0.5 1.3 -2
v -0.4 0.2 -2
v -0.4 0.4 -2
v 2.38419e-007 0.1 -2
v 2.38419e-007 0.3 -2
v 0.2 1.1 -2
v 0.2 1.5 -2
v 0.4 0.8 -2
v 0.4 0.9 -2
v 0.5 0.8 -2
v 0.5 0.9 -2
v 0.7 0.1 -2
v 0.7 0.3 -2
v 1.3 1 -2
v 1.3 1.1 -2
v 1.5 1 -2
v 1.5 1.1 -2
v -1.3 0 2
v -0.8 0 2
v -0.8 0 1.8
v 0.7 0 1.8
v -1.3 0 1.6
v -1.2 0 1.6
v 0.7 0 1.5
v 1.1 0 1.5
v 1.1 0 1.4
v 1.8 0 1.4
v -1.2 0 1.3
v -1 0 1.3
v -1.7 0 1.1
v -1 0 1.1
v 1.3 0 0.5
v 1.8 0 0.5
v 1.3 0 -0.2
v 1.5 0 -0.2
v 1.3 0 -0.4
v 1.5 0 -0.4
v -1.7 0 -1
v -1.6 0 -1
v -1.7 0 -1.4
v -1.6 0 -1.4
v -1.7 0 -1.5
v 1.3 0 -1.5
v 1.3 0.1 1.5
v 1.4 0.1 1.5
v 1.7 0.1 1.5
v 1.9 0.1 1.5
v 1.3 0.1 1.4
v 1.4 0.1 1.4
v 1.7 0.1 1.4
v 1.8 0.1 1.4
v 1.8 0.1 1.3
v 1.9 0.1 1.3
v 1.3 0.1 0.5
v 1.8 0.1 0.5
v 1.8 0.1 0.0999999
v 1.9 0.1 0.0999999
v 1.3 0.1 -0.2
v 1.5 0.1 -0.2
v 1.3 0.1 -0.4
v 1.5 0.1 -0.4
v 1.6 0.1 -0.5
v 1.9 0.1 -0.5
v 1.3 0.1 -0.7
v 1.6 0.1 -0.7
v 2.38419e-007 0.1 -1.5
v 1.2 0.1 -1.5
v 0.7 0.1 -1.8
v 1.2 0.1 -1.8
v 2.38419e-007 0.1 -2
v 0.7 0.1 -2
v -0.3 0.2 2
v -0.0999999 0.2 2
v -0.8 0.2 1.9
v -0.3 0.2 1.9
v -0.8 0.2 1.8
v -0.0999999 0.2 1.8
v -1.9 0.2 -0.6
v -1.4 0.2 -0.6
v -1.9 0.2 -1
v -1.6 0.2 -1
v -1.4 0.2 -1.2
v -1 0.2 -1.2
v -1.9 0.2 -1.4
v -1.6 0.2 -1.4
v -1 0.2 -1.4
v -0.4 0.2 -1.4
v -1.9 0.2 -1.6
v -1.8 0.2 -1.6
v -1.8 0.2 -2
v -0.4 0.2 -2
v -1.5 0.3 0.4
v -1.4 0.3 0.4
v -1.5 0.3 0.2
v -1.4 0.3 0.2
v 1.8 0.4 1.3
v 1.9 0.4 1.3
v 1.8 0.4 0.0999999
v 1.9 0.4 0.0999999
v 1.2 0.5 -0.7
v 1.6 0.5 -0.7
v -1.8 0.5 -1
v -1.6 0.5 -1
v -1.8 0.5 -1.4
v -1.6 0.5 -1.4
v 1.5 0.5 -1.4
v 1.6 0.5 -1.4
v 1.4 0.5 -1.5
v 1.5 0.5 -1.5
v 0.9 0.5 -1.8
v 1.1 0.5 -1.8
v 1.2 0.5 -1.8
v 1.4 0.5 -1.8
v 0.9 0.5 -1.9
v 1.1 0.5 -1.9
v -1.1 0.6 1.3
v -1 0.6 1.3
v 0.3 0.6 1.3
v 0.4 0.6 1.3
v 0.3 0.6 1.1
v 0.4 0.6 1.1
v -1.1 0.6 0.8
v -1 0.6 0.8
v 1.2 0.6 0.5
v 1.3 0.6 0.5
v 1.2 0.6 0.4
v 1.3 0.6 0.4
v -1.5 0.6 0.3
v -1.4 0.6 0.3
v 1.2 0.6 0.2
v 1.3 0.6 0.2
v 1.2 0.6 -2.38419e-007
v 1.3 0.6 -2.38419e-007
v 1.7 0.6 -0.1
v 1.9 0.6 -0.1
v -1.5 0.6 -0.2
v -1.4 0.6 -0.2
v 1.6 0.6 -0.5
v 1.7 0.6 -0.5
v 1.7 0.6 -0.7
v 1.8 0.6 -0.7
v 1.8 0.6 -0.9
v 1.9 0.6 -0.9
v 1.6 0.6 -1.4
v 1.7 0.6 -1.4
v 1.4 0.6 -1.5
v 1.5 0.6 -1.5
v 1.4 0.6 -1.8
v 1.5 0.6 -1.8
v 1.2 0.7 0.4
v 1.3 0.7 0.4
v 1.2 0.7 0.2
v 1.3 0.7 0.2
v 1.2 0.7 -0.1
v 1.3 0.7 -0.1
v 1.2 0.7 -0.2
v 1.3 0.7 -0.2
v 1.2 0.7 -0.4
v 1.3 0.7 -0.4
v 1.2 0.7 -0.6
v 1.3 0.7 -0.6
v -1.9 0.7 -1.1
v -1.8 0.7 -1.1
v -1.9 0.7 -1.3
v -1.8 0.7 -1.3
v 0.8 0.7 -1.3
v 1.3 0.7 -1.3
v 0.8 0.7 -1.5
v 0.9 0.7 -1.5
v 1.3 0.7 -1.5
v -0.8 0.7 -1.6
v -0.6 0.7 -1.6
v -0.8 0.7 -1.7
v -0.6 0.7 -1.7
v -1.3 0.8 2
v -0.8 0.8 2
v -1.3 0.8 1.9
v -0.8 0.8 1.9
v -0.0999999 0.8 1.5
v 0.1 0.8 1.5
v -0.0999999 0.8 1.4
v 0.1 0.8 1.4
v 0.3 0.8 1.1
v 0.6 0.8 1.1
v 0.3 0.8 1
v 0.6 0.8 1
v 1.3 0.8 0.6
v 1.7 0.8 0.6
v 1.3 0.8 0.5
v 1.7 0.8 0.5
v -0.5 0.8 -1.8
v -0.4 0.8 -1.8
v 2.38419e-007 0.8 -1.8
v 0.3 0.8 -1.8
v 0.5 0.8 -1.8
v 0.7 0.8 -1.8
v -0.5 0.8 -1.9
v -0.4 0.8 -1.9
v 2.38419e-007 0.8 -1.9
v 0.3 0.8 -1.9
v 0.4 0.8 -1.9
v 0.5 0.8 -1.9
v 0.7 0.8 -1.9
v 0.4 0.8 -2
v 0.5 0.8 -2
v -1.5 0.9 -0.2
v -1.4 0.9 -0.2
v -1.5 0.9 -0.6
v -1.4 0.9 -0.6
v -0.4 0.9 -1
v 2.38419e-007 0.9 -1
v -1.7 0.9 -1.7
v -1 0.9 -1.7
v -1.2 0.9 -1.8
v -1 0.9 -1.8
v -1.4 0.9 -1.9
v -1.2 0.9 -1.9
v -0.4 0.9 -1.9
v 2.38419e-007 0.9 -1.9
v -1.7 0.9 -2
v -1.4 0.9 -2
v -1.3 1 1.2
v -1.1 1 1.2
v 0.6 1 1.1
v 1 1 1.1
v 0.6 1 0.8
v 0.7 1 0.8
v 0.7 1 0.7
v 1 1 0.7
v 1.2 1 0.7
v 1 1 0.6
v 1.2 1 0.6
v -1.3 1 0.4
v -1.1 1 0.4
v 0.8 1 -0.6
v 1.2 1 -0.6
v 0.8 1 -0.7
v 1.2 1 -0.7
v -1.2 1 -1.8
v -1 1 -1.8
v 1.3 1 -1.8
v 1.5 1 -1.8
v -1.2 1 -1.9
v -1 1 -1.9
v 1.3 1 -2
v 1.5 1 -2
v -0.5 1.1 1.6
v -0.4 1.1 1.6
v -0.5 1.1 1.3
v -0.4 1.1 1.3
v -0.5 1.1 1.2
v -0.4 1.1 1.2
v -0.4 1.1 1.1
v 0.2 1.1 1.1
v -0.5 1.1 1
v -0.3 1.1 1
v -0.9 1.1 0.9
v -0.6 1.1 0.9
v -0.9 1.1 0.8
v -0.6 1.1 0.8
v -0.0999999 1.1 0.8
v 0.2 1.1 0.8
v -0.3 1.1 0.7
v -0.0999999 1.1 0.7
v -1.1 1.1 0.0999999
v -1 1.1 0.0999999
v -1.1 1.1 -0.2
v -1 1.1 -0.2
v 1.8 1.1 -0.3
v 1.9 1.1 -0.3
v 1.8 1.1 -0.5
v 1.9 1.1 -0.5
v -1.9 1.1 -1
v -1.8 1.1 -1
v -1.9 1.1 -1.4
v -1.8 1.1 -1.4
v -1 1.1 -1.6
v -0.5 1.1 -1.6
v -1 1.1 -1.9
v -0.5 1.1 -1.9
v 0.2 1.1 -1.9
v -0.5 1.1 -2
v 0.2 1.1 -2
v -0.4 1.2 1.6
v 0.5 1.2 1.6
v -0.4 1.2 1.3
v -0.3 1.2 1.3
v -0.4 1.2 1.2
v -0.3 1.2 1.2
v -0.4 1.2 1.1
v 0.5 1.2 1.1
v 1.2 1.2 0.7
v 1.5 1.2 0.7
v 1.2 1.2 0.6
v 1.5 1.2 0.6
v -1.1 1.2 -0.4
v -1 1.2 -0.4
v -0.8 1.2 -0.4
v -1.1 1.2 -0.6
v -0.8 1.2 -0.6
v 0.2 1.2 -1
v 0.5 1.2 -1
v 0.2 1.2 -1.7
v 0.5 1.2 -1.7
v -1.8 1.3 0.9
v -1 1.3 0.9
v -1.8 1.3 0.6
v -1.7 1.3 0.6
v -1.5 1.3 0.3
v -1.4 1.3 0.3
v -1.4 1.3 0.2
v -1.1 1.3 0.2
v -1.1 1.3 0.0999999
v -1 1.3 0.0999999
v -1.1 1.3 -0.2
v -1 1.3 -0.2
v -1.1 1.3 -0.4
v -1 1.3 -0.4
v -1.7 1.3 -0.6
v -1.5 1.3 -0.6
v -0.4 1.3 -0.7
v -0.2 1.3 -0.7
v -0.4 1.3 -0.8
v -0.2 1.3 -0.8
v -2 1.3 -0.9
v -1.9 1.3 -0.9
v 0.5 1.3 -1
v 0.6 1.3 -1
v -2 1.3 -1.1
v -1.9 1.3 -1.1
v 0.5 1.3 -1.5
v 0.6 1.3 -1.5
v -1.4 1.3 -1.9
v -0.5 1.3 -1.9
v -1.4 1.3 -2
v -0.5 1.3 -2
v -0.9 1.4 1.2
v -0.8 1.4 1.2
v 0.5 1.4 1.2
v 0.7 1.4 1.2
v 0.5 1.4 1.1
v 0.7 1.4 1.1
v -0.9 1.4 1
v -0.8 1.4 1
v 0.6 1.4 -0.7
v 0.7 1.4 -0.7
v 0.6 1.4 -1.2
v 0.7 1.4 -1.2
v 1.8 1.5 0.4
v 1.9 1.5 0.4
v 1.8 1.5 0.2
v 1.9 1.5 0.2
v -1.8 1.5 -0.5
v -1.7 1.5 -0.5
v -1.8 1.5 -0.7
v -1.7 1.5 -0.7
v -0.6 1.6 1.7
v -0.4 1.6 1.7
v -0.6 1.6 1.6
v -0.4 1.6 1.6
v -0.0999999 1.6 1.3
v 0.1 1.6 1.3
v -0.0999999 1.6 1.2
v 0.1 1.6 1.2
v 0.7 1.6 1.2
v 0.9 1.6 1.2
v 0.7 1.6 1.1
v 0.9 1.6 1.1
v -1.2 1.6 1
v -1 1.6 1
v -1.2 1.6 0.9
v -1 1.6 0.9
v 1 1.7 0.8
v 1.2 1.7 0.8
v 1 1.7 0.7
v 1.2 1.7 0.7
v -1.8 1.9 0.4
v -1.7 1.9 0.4
v -1.8 1.9 0.2
v -1.7 1.9 0.2
v -0.9 2 1
v -0.8 2 1
v -0.9 2 0.9
v -0.8 2 0.9
v -0.6 2.1 1
v 0.1 2.1 1
v -0.6 2.1 0.9
v 0.1 2.1 0.9
v 0.8 2.1 0.9
v 0.1 2.1 0.8
v 0.8 2.1 0.8
v 0.6 2.1 -2.38419e-007
v 0.8 2.1 -2.38419e-007
v 0.6 2.1 -0.4
v 0.8 2.1 -0.4
v 0.1 2.2 1
v 0.3 2.2 1
v 0.1 2.2 0.9
v 0.3 2.2 0.9
v 0.8 2.2 -2.38419e-007
v 1.2 2.2 -2.38419e-007
v 0.8 2.2 -0.4
v 1.2 2.2 -0.4
v -0.0999999 2.3 1.1
v 0.1 2.3 1.1
v -0.0999999 2.3 1
v 0.1 2.3 1
v 1.2 2.3 0.4
v 1.3 2.3 0.4
v 1.2 2.3 0.2
v 1.3 2.3 0.2
v -1.7 0.1 1.1
v -1.1 0.1 1.1
v -1.4 0.1 0.8
v -1.1 0.1 0.8
v 1.2 0.1 0.5
v 1.3 0.1 0.5
v 1.2 0.1 -2.38419e-007
v 1.3 0.1 -2.38419e-007
v 1.2 0.1 -0.7
v 1.3 0.1 -0.7
v -1.7 0.1 -1
v -1.6 0.1 -1
v -1.4 0.1 -1.2
v -1 0.1 -1.2
v -1.7 0.1 -1.4
v -1.6 0.1 -1.4
v -1 0.1 -1.4
v 2.38419e-007 0.1 -1.4
v -1.7 0.1 -1.5
v 2.38419e-007 0.1 -1.5
v 1.2 0.1 -1.5
v 1.3 0.1 -1.5
v -1.3 0.2 2
v -0.8 0.2 2
v -1.3 0.2 1.9
v -0.8 0.2 1.9
v 1.7 0.2 -0.1
v 1.9 0.2 -0.1
v 1.7 0.2 -0.5
v 1.9 0.2 -0.5
v -1.7 0.3 -1.7
v -0.9 0.3 -1.7
v -0.5 0.3 -1.8
v -0.4 0.3 -1.8
v 2.38419e-007 0.3 -1.8
v 0.3 0.3 -1.8
v -0.5 0.3 -1.9
v -0.4 0.3 -1.9
v 0.3 0.3 -1.9
v 0.7 0.3 -1.9
v -1.7 0.3 -2
v -0.9 0.3 -2
v 2.38419e-007 0.3 -2
v 0.7 0.3 -2
v -1.1 0.4 1.1
v -1 0.4 1.1
v -1.1 0.4 0.8
v -1 0.4 0.8
v -0.4 0.4 -1.2
v 2.38419e-007 0.4 -1.2
v -0.4 0.4 -1.4
v 2.38419e-007 0.4 -1.4
v -0.9 0.4 -1.9
v -0.5 0.4 -1.9
v -0.4 0.4 -1.9
v -0.9 0.4 -2
v -0.4 0.4 -2
v 0.7 0.5 1.5
v 1.1 0.5 1.5
v 0.9 0.5 1.4
v 1.1 0.5 1.4
v 0.3 0.5 1.3
v 0.7 0.5 1.3
v 0.3 0.5 1.1
v 0.9 0.5 1.1
v -1.5 0.5 0.4
v -1.4 0.5 0.4
v -1.5 0.5 0.2
v -1.4 0.5 0.2
v -1 0.5 -1.6
v -0.5 0.5 -1.6
v -1 0.5 -1.7
v -0.9 0.5 -1.7
v -0.5 0.5 -1.8
v 0.5 0.5 -1.8
v 0.7 0.5 -1.8
v -0.9 0.5 -1.9
v -0.5 0.5 -1.9
v 0.5 0.5 -1.9
v 0.7 0.5 -1.9
v 0.4 0.6 1.8
v 0.7 0.6 1.8
v -1.2 0.6 1.6
v -1.1 0.6 1.6
v 0.9 0.6 1.4
v 1.3 0.6 1.4
v -1.2 0.6 1.3
v -1.1 0.6 1.3
v 0.4 0.6 1.3
v 0.7 0.6 1.3
v 0.4 0.6 1.1
v 0.9 0.6 1.1
v 0.4 0.6 1
v 0.6 0.6 1
v 0.6 0.6 0.8
v 0.7 0.6 0.8
v 0.7 0.6 0.7
v 1 0.6 0.7
v 1 0.6 0.6
v 1.3 0.6 0.6
v 1.2 0.6 -0.1
v 1.3 0.6 -0.1
v 1.2 0.6 -0.2
v 1.3 0.6 -0.2
v 1.2 0.6 -0.4
v 1.3 0.6 -0.4
v 0.8 0.6 -0.6
v 1.2 0.6 -0.6
v 0.9 0.6 -1.5
v 1.3 0.6 -1.5
v 0.8 0.6 -1.8
v 0.9 0.6 -1.8
v -0.0999999 0.7 1.8
v 0.4 0.7 1.8
v -0.8 0.7 1.7
v -0.0999999 0.7 1.7
v -0.8 0.7 1.6
v -0.5 0.7 1.6
v 1.3 0.7 1.5
v 1.4 0.7 1.5
v 1.7 0.7 1.5
v 1.9 0.7 1.5
v -0.5 0.7 1.4
v 0.3 0.7 1.4
v 1.4 0.7 1.4
v 1.7 0.7 1.4
v 0.3 0.7 1
v 0.4 0.7 1
v -1.4 0.7 0.8
v -1.1 0.7 0.8
v 1.3 0.7 0.6
v 1.3 0.7 0.5
v 1.8 0.7 0.5
v -1.3 0.7 0.4
v -1.1 0.7 0.4
v -1.4 0.7 0.3
v -1.4 0.7 0.2
v -1.3 0.7 0.2
v 1.5 0.7 -0.6
v 1.8 0.7 -0.6
v 1.7 0.7 -0.7
v 1.8 0.7 -0.7
v 1.8 0.7 -0.9
v 1.9 0.7 -0.9
v -0.4 0.7 -1
v 2.38419e-007 0.7 -1
v -0.4 0.7 -1.2
v 2.38419e-007 0.7 -1.2
v 1.5 0.7 -1.3
v 1.6 0.7 -1.3
v 1.6 0.7 -1.4
v 1.7 0.7 -1.4
v 0.9 0.7 -1.8
v 1.1 0.7 -1.8
v 0.9 0.7 -1.9
v 1.1 0.7 -1.9
v -0.3 0.8 2
v -0.0999999 0.8 2
v -0.8 0.8 1.9
v -0.3 0.8 1.9
v -0.8 0.8 1.7
v -0.0999999 0.8 1.7
v 0.3 0.9 -1
v 0.8 0.9 -1
v -1.9 0.9 -1.1
v -1.8 0.9 -1.1
v -1.9 0.9 -1.3
v -1.8 0.9 -1.3
v 0.5 0.9 -1.3
v 0.8 0.9 -1.3
v 0.2 0.9 -1.5
v 0.3 0.9 -1.5
v 0.5 0.9 -1.5
v 0.8 0.9 -1.5
v -0.8 0.9 -1.6
v -0.6 0.9 -1.6
v -0.8 0.9 -1.7
v -0.6 0.9 -1.7
v 0.7 0.9 -1.8
v 0.8 0.9 -1.8
v 0.2 0.9 -1.9
v 0.4 0.9 -1.9
v 0.5 0.9 -1.9
v 0.7 0.9 -1.9
v 0.4 0.9 -2
v 0.5 0.9 -2
v -1.3 1 2
v -0.8 1 2
v -1.3 1 1.6
v -1.1 1 1.6
v -1 1 1.6
v -0.8 1 1.6
v -0.0999999 1 1.5
v 0.1 1 1.5
v -0.5 1 1.4
v -0.0999999 1 1.4
v 0.1 1 1.4
v 0.3 1 1.4
v -0.5 1 1.3
v -0.3 1 1.3
v -1.1 1 1.2
v -1 1 1.2
v -0.5 1 1.2
v -0.3 1 1.2
v 0.2 1 1.1
v 0.3 1 1.1
v -0.5 1 1
v -0.3 1 1
v -0.9 1 0.9
v -0.6 1 0.9
v -0.9 1 0.8
v -0.6 1 0.8
v -0.0999999 1 0.8
v 0.2 1 0.8
v -0.3 1 0.7
v -0.0999999 1 0.7
v -1.1 1 0.2
v -1 1 0.2
v -1 1 -0.4
v -0.8 1 -0.4
v -1.1 1 -0.6
v -0.8 1 -0.6
v 0.5 1 -1.3
v 1.3 1 -1.3
v 1.5 1 -1.3
v 1.6 1 -1.3
v 1.5 1 -1.4
v 1.6 1 -1.4
v 0.5 1 -1.5
v 0.9 1 -1.5
v 0.9 1 -1.8
v 1.3 1 -1.8
v -1 1.1 1.6
v -0.8 1.1 1.6
v -1 1.1 1.2
v -0.9 1.1 1.2
v -0.9 1.1 1
v -0.8 1.1 1
v 1.3 1.1 -0.6
v 1.5 1.1 -0.6
v 0.2 1.1 -1
v 0.3 1.1 -1
v 1.3 1.1 -1.1
v 1.5 1.1 -1.1
v 1.3 1.1 -1.3
v 1.5 1.1 -1.3
v 0.2 1.1 -1.5
v 0.3 1.1 -1.5
v 1.3 1.1 -2
v 1.5 1.1 -2
v -1.3 1.2 1.2
v -0.9 1.2 1.2
v -0.9 1.2 1
v -1 1.2 0.9
v -0.9 1.2 0.9
v -1.3 1.2 0.2
v -1.1 1.2 0.2
v -1 1.2 0.2
v -0.4 1.2 -0.7
v -0.2 1.2 -0.7
v 0.6 1.2 -0.7
v 0.8 1.2 -0.7
v -0.4 1.2 -0.8
v -0.2 1.2 -0.8
v 0.6 1.2 -1
v 0.8 1.2 -1
v 1.3 1.2 -1.1
v 1.5 1.2 -1.1
v 1.3 1.2 -1.3
v 1.5 1.2 -1.3
v 1.8 1.3 -0.3
v 1.9 1.3 -0.3
v 1.8 1.3 -0.5
v 1.9 1.3 -0.5
v -1.9 1.3 -0.6
v -1.7 1.3 -0.6
v -1.9 1.3 -0.9
v -1.7 1.3 -0.9
v -1.9 1.3 -1.1
v -1.8 1.3 -1.1
v -1.8 1.3 -1.5
v -1.6 1.3 -1.5
v -1.9 1.3 -1.6
v -1.8 1.3 -1.6
v -1.8 1.3 -2
v -1.6 1.3 -2
v -0.4 1.4 1.6
v 0.5 1.4 1.6
v -0.4 1.4 1.2
v 0.5 1.4 1.2
v -2 1.4 -0.9
v -1.8 1.4 -0.9
v -2 1.4 -1.1
v -1.8 1.4 -1.1
v -1.6 1.5 -1.5
v -1.3 1.5 -1.5
v -0.3 1.5 -1.5
v -0.0999999 1.5 -1.5
v -0.0999999 1.5 -1.7
v 0.2 1.5 -1.7
v -1.3 1.5 -1.8
v -0.3 1.5 -1.8
v -1.6 1.5 -2
v 0.2 1.5 -2
v 0.7 1.6 -0.6
v 1.2 1.6 -0.6
v 0.7 1.6 -0.7
v 1.2 1.6 -0.7
v -1.3 1.6 -1.5
v -0.3 1.6 -1.5
v -0.0999999 1.6 -1.5
v 0.5 1.6 -1.5
v -1 1.6 -1.6
v -0.8 1.6 -1.6
v -0.0999999 1.6 -1.7
v 0.5 1.6 -1.7
v -1.3 1.6 -1.8
v -1 1.6 -1.8
v -0.8 1.6 -1.8
v -0.3 1.6 -1.8
v -1.8 1.7 0.9
v -1.4 1.7 0.9
v -1.8 1.7 0.6
v -1.7 1.7 0.6
v -1.7 1.7 0.5
v -1.4 1.7 0.5
v 1.8 1.7 0.4
v 1.9 1.7 0.4
v 1.8 1.7 0.2
v 1.9 1.7 0.2
v -1.8 1.7 -0.5
v -1.7 1.7 -0.5
v -1.8 1.7 -0.7
v -1.7 1.7 -0.7
v -1.1 1.7 -0.8
v -0.9 1.7 -0.8
v -1.8 1.7 -0.9
v -1.7 1.7 -0.9
v -1.1 1.7 -0.9
v -0.9 1.7 -1.2
v 0.3 1.7 -1.2
v 0.5 1.7 -1.2
v 0.6 1.7 -1.2
v 0.3 1.7 -1.4
v 0.5 1.7 -1.4
v -1.8 1.7 -1.5
v 0.6 1.7 -1.5
v -1 1.7 -1.6
v -0.8 1.7 -1.6
v -1 1.7 -1.8
v -0.8 1.7 -1.8
v -0.6 1.8 1.7
v -0.4 1.8 1.7
v -0.8 1.8 1.6
v -0.6 1.8 1.6
v -0.4 1.8 1.6
v -0.0999999 1.8 1.3
v 0.1 1.8 1.3
v -0.9 1.8 1.2
v -0.8 1.8 1.2
v -0.4 1.8 1.2
v -0.0999999 1.8 1.2
v 0.1 1.8 1.2
v 0.7 1.8 1.2
v 0.9 1.8 1.2
v -0.7 1.8 1.1
v 0.7 1.8 1.1
v 0.9 1.8 1.1
v -1.2 1.8 1
v -1 1.8 1
v -1.2 1.8 0.9
v -1 1.8 0.9
v -0.9 1.8 0.9
v -0.7 1.8 0.9
v 1.7 1.8 0.5
v 1.8 1.8 0.5
v 1 1.8 -0.2
v 1.7 1.8 -0.2
v 0.6 1.8 -0.5
v 1 1.8 -0.5
v 0.7 1.8 -0.6
v 1.8 1.8 -0.6
v -0.9 1.8 -0.8
v -0.8 1.8 -0.8
v -0.8 1.8 -1.1
v 0.6 1.8 -1.1
v -0.9 1.8 -1.2
v 0.3 1.8 -1.2
v 0.5 1.8 -1.2
v 0.7 1.8 -1.2
v 0.3 1.8 -1.4
v 0.5 1.8 -1.4
v -0.7 1.9 1.1
v 1 1.9 1.1
v -0.7 1.9 0.9
v 0.1 1.9 0.9
v 0.1 1.9 0.8
v 1 1.9 0.8
v 0.6 1.9 -0.2
v 1 1.9 -0.2
v 0.6 1.9 -0.5
v 1 1.9 -0.5
v 1.2 2 0.7
v 1.5 2 0.7
v 1.5 2 0.6
v 1.7 2 0.6
v 0.6 2 -2.38419e-007
v 1.2 2 -2.38419e-007
v 0.6 2 -0.2
v 1.7 2 -0.2
v -1.8 2.1 0.4
v -1.7 2.1 0.4
v -1.8 2.1 0.2
v -1.7 2.1 0.2
v 0.1 2.1 -0.4
v 0.6 2.1 -0.4
v -0.8 2.1 -0.8
v 0.1 2.1 -0.8
v -0.8 2.1 -1.1
v 0.6 2.1 -1.1
v -1.4 2.2 0.9
v -0.9 2.2 0.9
v -0.8 2.2 0.9
v -0.6 2.2 0.9
v 0.8 2.2 0.8
v 1.2 2.2 0.8
v -1.4 2.2 0.5
v -1.1 2.2 0.5
v 0.8 2.2 0.5
v 1.2 2.2 0.5
v -0.9 2.2 0.4
v -0.8 2.2 0.4
v -0.9 2.2 0.2
v -0.7 2.2 0.2
v -0.9 2.2 -0.3
v -0.7 2.2 -0.3
v -0.6 2.2 -0.4
v 0.1 2.2 -0.4
v -1.1 2.2 -0.8
v 0.1 2.2 -0.8
v -0.9 2.3 1
v -0.8 2.3 1
v -0.6 2.3 1
v -0.4 2.3 1
v -1.7 2.3 0.5
v -1.1 2.3 0.5
v -0.9 2.3 0.4
v -0.8 2.3 0.4
v -0.9 2.3 0.2
v -0.7 2.3 0.2
v -0.9 2.3 -0.3
v -0.7 2.3 -0.3
v -0.6 2.3 -0.4
v -0.4 2.3 -0.4
v -1.5 2.3 -0.5
v -1.3 2.3 -0.5
v -1.5 2.3 -0.7
v -1.3 2.3 -0.7
v -1.7 2.3 -0.9
v -1.1 2.3 -0.9
v 0.6 2.4 0.9
v 0.8 2.4 0.9
v 0.6 2.4 0.5
v 0.8 2.4 0.5
v -0.4 2.4 0.0999999
v -0.3 2.4 0.0999999
v -0.3 2.4 -0.2
v 0.3 2.4 -0.2
v -0.4 2.4 -0.4
v 0.3 2.4 -0.4
v -1.5 2.4 -0.5
v -1.3 2.4 -0.5
v -1.5 2.4 -0.7
v -1.3 2.4 -0.7
v -0.0999999 2.5 1.1
v 0.1 2.5 1.1
v -0.4 2.5 1
v -0.0999999 2.5 1
v 0.1 2.5 1
v 0.3 2.5 1
v 0.3 2.5 0.9
v 0.6 2.5 0.9
v 0.6 2.5 0.5
v 1.2 2.5 0.5
v 1.2 2.5 0.4
v 1.3 2.5 0.4
v 1.2 2.5 0.2
v 1.3 2.5 0.2
v -0.4 2.5 0.0999999
v -0.3 2.5 0.0999999
v -0.0999999 2.5 0.0999999
v -0.3 2.5 -0.1
v -0.0999999 2.5 -0.1
v 0.9 2.5 -0.1
v 1.1 2.5 -0.1
v -0.3 2.5 -0.2
v 0.3 2.5 -0.2
v 0.9 2.5 -0.3
v 1.1 2.5 -0.3
v 0.3 2.5 -0.4
v 1.2 2.5 -0.4
v -0.3 2.6 0.0999999
v -0.0999999 2.6 0.0999999
v -0.3 2.6 -0.1
v -0.0999999 2.6 -0.1
v 0.9 2.6 -0.1
v 1.1 2.6 -0.1
v 0.9 2.6 -0.3
v 1.1 2.6 -0.3

# faces
f 3/2/1 2/2/1 1/2/1
f 4/2/1 2/2/1 3/2/1
f 11/1/1 10/1/1 9/1/1
f 12/1/1 10/1/1 11/1/1
f 13/2/1 6/2/1 5/2/1
f 14/2/1 8/2/1 7/2/1
f 15/2/1 13/2/1 5/2/1
f 15/2/1 14/2/1 13/2/1
f 16/2/1 14/2/1 15/2/1
f 17/2/1 14/2/1 16/2/1
f 18/2/1 8/2/1 14/2/1
f 18/2/1 14/2/1 17/2/1
f 23/2/1 22/2/1 21/2/1
f 24/2/1 22/2/1 23/2/1
f 25/2/1 23/2/1 21/2/1
f 26/2/1 22/2/1 24/2/1
f 27/2/1 25/2/1 21/2/1
f 27/2/1 26/2/1 25/2/1
f 28/2/1 22/2/1 26/2/1
f 28/2/1 26/2/1 27/2/1
f 33/2/1 20/2/1 19/2/1
f 34/2/1 20/2/1 33/2/1
f 36/2/1 32/2/1 31/2/1
f 39/2/1 30/2/1 29/2/1
f 40/2/1 30/2/1 39/2/1
f 41/1/1 38/1/1 37/1/1
f 42/1/1 38/1/1 41/1/1
f 43/2/1 36/2/1 35/2/1
f 44/2/1 32/2/1 36/2/1
f 44/2/1 36/2/1 43/2/1
f 47/1/1 46/1/1 45/1/1
f 48/1/1 46/1/1 47/1/1
f 53/2/1 50/2/1 49/2/1
f 54/2/1 50/2/1 53/2/1
f 55/2/1 52/2/1 51/2/1
f 56/2/1 52/2/1 55/2/1
f 60/2/1 58/2/1 57/2/1
f 60/2/1 59/2/1 58/2/1
f 61/2/1 59/2/1 60/2/1
f 62/2/1 60/2/1 57/2/1
f 63/2/1 60/2/1 62/2/1
f 64/2/1 60/2/1 63/2/1
f 65/2/1 59/2/1 61/2/1
f 66/2/1 59/2/1 65/2/1
f 67/2/1 64/2/1 63/2/1
f 67/2/1 66/2/1 65/2/1
f 67/2/1 65/2/1 64/2/1
f 68/2/1 66/2/1 67/2/1
f 69/2/1 67/2/1 63/2/1
f 70/2/1 66/2/1 68/2/1
f 71/2/1 69/2/1 63/2/1
f 71/2/1 70/2/1 69/2/1
f 72/2/1 66/2/1 70/2/1
f 72/2/1 70/2/1 71/2/1
f 75/2/1 74/2/1 73/2/1
f 76/2/1 74/2/1 75/2/1
f 79/2/1 78/2/1 77/2/1
f 80/2/1 78/2/1 79/2/1
f 83/2/1 82/2/1 81/2/1
f 84/2/1 82/2/1 83/2/1
f 87/1/1 86/1/1 85/1/1
f 88/1/1 86/1/1 87/1/1
f 91/2/1 90/2/1 89/2/1
f 93/2/1 91/2/1 89/2/1
f 93/2/1 92/2/1 91/2/1
f 94/2/1 92/2/1 93/2/1
f 97/1/1 96/1/1 95/1/1
f 98/1/1 96/1/1 97/1/1
f 101/2/1 100/2/1 99/2/1
f 102/2/1 100/2/1 101/2/1
f 103/2/1 101/2/1 99/2/1
f 104/2/1 101/2/1 103/2/1
f 105/2/1 103/2/1 99/2/1
f 106/2/1 101/2/1 104/2/1
f 107/2/1 106/2/1 105/2/1
f 108/2/1 101/2/1 106/2/1
f 108/2/1 106/2/1 107/2/1
f 109/2/1 105/2/1 99/2/1
f 109/2/1 107/2/1 105/2/1
f 110/2/1 107/2/1 109/2/1
f 111/2/1 101/2/1 108/2/1
f 112/2/1 101/2/1 111/2/1
f 115/2/1 114/2/1 113/2/1
f 116/2/1 114/2/1 115/2/1
f 119/2/1 118/2/1 117/2/1
f 120/2/1 118/2/1 119/2/1
f 124/2/1 118/2/1 120/2/1
f 125/2/1 124/2/1 123/2/1
f 126/2/1 118/2/1 124/2/1
f 126/2/1 124/2/1 125/2/1
f 128/2/1 122/2/1 121/2/1
f 129/2/1 128/2/1 127/2/1
f 130/2/1 122/2/1 128/2/1
f 130/2/1 128/2/1 129/2/1
f 133/2/1 132/2/1 131/2/1
f 134/2/1 132/2/1 133/2/1
f 137/2/1 136/2/1 135/2/1
f 138/2/1 136/2/1 137/2/1
f 141/1/1 140/1/1 139/1/1
f 142/1/1 140/1/1 141/1/1
f 145/2/1 144/2/1 143/2/1
f 146/2/1 144/2/1 145/2/1
f 150/2/1 148/2/1 147/2/1
f 150/2/1 149/2/1 148/2/1
f 152/2/1 150/2/1 147/2/1
f 152/2/1 151/2/1 150/2/1
f 153/2/1 151/2/1 152/2/1
f 154/2/1 151/2/1 153/2/1
f 159/2/1 158/2/1 157/2/1
f 160/2/1 158/2/1 159/2/1
f 161/2/1 156/2/1 155/2/1
f 163/2/1 161/2/1 155/2/1
f 163/2/1 162/2/1 161/2/1
f 164/2/1 162/2/1 163/2/1
f 169/2/1 166/2/1 165/2/1
f 170/2/1 166/2/1 169/2/1
f 171/2/1 168/2/1 167/2/1
f 172/2/1 168/2/1 171/2/1
f 174/2/1 171/2/1 167/2/1
f 175/2/1 168/2/1 172/2/1
f 176/2/1 174/2/1 173/2/1
f 177/2/1 171/2/1 174/2/1
f 177/2/1 174/2/1 176/2/1
f 178/2/1 175/2/1 172/2/1
f 179/2/1 175/2/1 178/2/1
f 182/1/1 181/1/1 180/1/1
f 183/1/1 181/1/1 182/1/1
f 186/2/1 185/2/1 184/2/1
f 187/2/1 185/2/1 186/2/1
f 188/2/1 186/2/1 184/2/1
f 189/2/1 186/2/1 188/2/1
f 193/2/1 191/2/1 190/2/1
f 196/2/1 193/2/1 192/2/1
f 197/2/1 191/2/1 193/2/1
f 197/2/1 193/2/1 196/2/1
f 198/2/1 195/2/1 194/2/1
f 199/2/1 195/2/1 198/2/1
f 202/2/1 201/2/1 200/2/1
f 206/2/1 202/2/1 200/2/1
f 206/2/1 203/2/1 202/2/1
f 207/2/1 203/2/1 206/2/1
f 208/2/1 205/2/1 204/2/1
f 209/2/1 205/2/1 208/2/1
f 212/1/1 211/1/1 210/1/1
f 213/1/1 211/1/1 212/1/1
f 218/2/1 215/2/1 214/2/1
f 219/2/1 215/2/1 218/2/1
f 220/2/1 217/2/1 216/2/1
f 221/2/1 217/2/1 220/2/1
f 222/2/1 220/2/1 216/2/1
f 223/2/1 220/2/1 222/2/1
f 226/2/1 225/2/1 224/2/1
f 227/2/1 225/2/1 226/2/1
f 230/2/1 229/2/1 228/2/1
f 231/2/1 229/2/1 230/2/1
f 234/2/1 233/2/1 232/2/1
f 235/2/1 233/2/1 234/2/1
f 238/1/1 237/1/1 236/1/1
f 239/1/1 237/1/1 238/1/1
f 242/2/1 241/2/1 240/2/1
f 244/2/1 242/2/1 240/2/1
f 244/2/1 243/2/1 242/2/1
f 245/2/1 243/2/1 244/2/1
f 248/2/1 247/2/1 246/2/1
f 250/2/1 248/2/1 246/2/1
f 250/2/1 249/2/1 248/2/1
f 251/2/1 249/2/1 250/2/1
f 253/2/1 252/2/1 251/2/1
f 254/2/1 252/2/1 253/2/1
f 257/2/1 256/2/1 255/2/1
f 258/2/1 256/2/1 257/2/1
f 259/2/1 257/2/1 255/2/1
f 260/2/1 257/2/1 259/2/1
f 263/2/1 262/2/1 261/2/1
f 264/2/1 262/2/1 263/2/1
f 267/2/1 266/2/1 265/2/1
f 268/2/1 266/2/1 267/2/1
f 269/2/1 266/2/1 268/2/1
f 270/1/1 268/1/1 267/1/1
f 271/1/1 268/1/1 270/1/1
f 274/2/1 273/2/1 272/2/1
f 275/2/1 273/2/1 274/2/1
f 278/1/1 277/1/1 276/1/1
f 279/1/1 277/1/1 278/1/1
f 282/2/1 281/2/1 280/2/1
f 283/2/1 281/2/1 282/2/1
f 288/2/1 285/2/1 284/2/1
f 289/2/1 285/2/1 288/2/1
f 290/1/1 287/1/1 286/1/1
f 291/1/1 287/1/1 290/1/1
f 294/1/1 293/1/1 292/1/1
f 295/1/1 293/1/1 294/1/1
f 299/2/1 297/2/1 296/2/1
f 299/2/1 298/2/1 297/2/1
f 300/2/1 298/2/1 299/2/1
f 302/2/1 299/2/1 296/2/1
f 304/2/1 302/2/1 301/2/1
f 305/2/1 299/2/1 302/2/1
f 305/2/1 304/2/1 303/2/1
f 305/2/1 302/2/1 304/2/1
f 307/2/1 305/2/1 303/2/1
f 307/2/1 306/2/1 305/2/1
f 308/2/1 306/2/1 307/2/1
f 311/2/1 310/2/1 309/2/1
f 312/2/1 310/2/1 311/2/1
f 315/2/1 314/2/1 313/2/1
f 316/2/1 314/2/1 315/2/1
f 319/1/1 318/1/1 317/1/1
f 320/1/1 318/1/1 319/1/1
f 323/2/1 322/2/1 321/2/1
f 324/2/1 322/2/1 323/2/1
f 327/2/1 326/2/1 325/2/1
f 328/2/1 326/2/1 327/2/1
f 331/2/1 330/2/1 329/2/1
f 332/2/1 330/2/1 331/2/1
f 337/2/1 334/2/1 333/2/1
f 338/2/1 334/2/1 337/2/1
f 340/1/1 336/1/1 335/1/1
f 341/2/1 340/2/1 339/2/1
f 342/1/1 336/1/1 340/1/1
f 342/2/1 340/2/1 341/2/1
f 343/1/1 336/1/1 342/1/1
f 344/2/1 342/2/1 341/2/1
f 345/2/1 342/2/1 344/2/1
f 348/1/1 347/1/1 346/1/1
f 349/1/1 347/1/1 348/1/1
f 354/2/1 351/2/1 350/2/1
f 356/2/1 353/2/1 352/2/1
f 357/2/1 353/2/1 356/2/1
f 358/2/1 353/2/1 357/2/1
f 359/2/1 353/2/1 358/2/1
f 364/2/1 355/2/1 354/2/1
f 364/2/1 354/2/1 350/2/1
f 365/2/1 355/2/1 364/2/1
f 366/2/1 358/2/1 357/2/1
f 367/2/1 358/2/1 366/2/1
f 368/2/1 361/2/1 360/2/1
f 369/2/1 361/2/1 368/2/1
f 370/2/1 363/2/1 362/2/1
f 371/2/1 363/2/1 370/2/1
f 372/2/1 363/2/1 371/2/1
f 373/2/1 363/2/1 372/2/1
f 374/2/1 372/2/1 371/2/1
f 377/2/1 374/2/1 371/2/1
f 377/2/1 376/2/1 375/2/1
f 377/2/1 375/2/1 374/2/1
f 378/2/1 376/2/1 377/2/1
f 379/2/1 376/2/1 378/2/1
f 380/2/1 376/2/1 379/2/1
f 381/1/1 379/1/1 378/1/1
f 382/1/1 379/1/1 381/1/1
f 385/2/1 384/2/1 383/2/1
f 386/2/1 384/2/1 385/2/1
f 389/2/1 388/2/1 387/2/1
f 390/2/1 388/2/1 389/2/1
f 391/2/2 392/2/2 393/2/2
f 393/2/2 392/2/2 394/2/2
f 395/2/2 396/2/2 399/2/2
f 399/2/2 396/2/2 400/2/2
f 397/2/2 398/2/2 401/2/2
f 401/2/2 398/2/2 402/2/2
f 403/1/2 404/1/2 405/1/2
f 405/1/2 404/1/2 406/1/2
f 407/2/2 408/2/2 409/2/2
f 409/2/2 408/2/2 410/2/2
f 411/2/2 412/2/2 413/2/2
f 413/2/2 412/2/2 414/2/2
f 411/2/2 413/2/2 415/2/2
f 414/2/2 412/2/2 416/2/2
f 416/2/2 412/2/2 417/2/2
f 415/2/2 413/2/2 418/2/2
f 418/2/2 413/2/2 419/2/2
f 414/2/2 416/2/2 420/2/2
f 420/2/2 416/2/2 421/2/2
f 422/2/2 423/2/2 425/2/2
f 424/2/2 425/2/2 426/2/2
f 425/2/2 423/2/2 427/2/2
f 426/2/2 425/2/2 427/2/2
f 428/2/2 429/2/2 430/2/2
f 430/2/2 431/2/2 432/2/2
f 428/2/2 430/2/2 434/2/2
f 432/2/2 433/2/2 434/2/2
f 430/2/2 432/2/2 434/2/2
f 434/2/2 433/2/2 435/2/2
f 436/1/2 437/1/2 438/1/2
f 438/1/2 437/1/2 439/1/2
f 440/2/2 441/2/2 444/2/2
f 444/2/2 441/2/2 445/2/2
f 442/2/2 443/2/2 446/2/2
f 446/2/2 443/2/2 447/2/2
f 448/2/2 449/2/2 450/2/2
f 450/2/2 449/2/2 451/2/2
f 451/2/2 449/2/2 452/2/2
f 453/2/2 454/2/2 457/2/2
f 455/2/2 456/2/2 458/2/2
f 456/2/2 457/2/2 458/2/2
f 457/2/2 454/2/2 459/2/2
f 458/2/2 457/2/2 459/2/2
f 460/1/2 461/1/2 462/1/2
f 462/1/2 461/1/2 463/1/2
f 464/2/2 465/2/2 466/2/2
f 464/2/2 466/2/2 468/2/2
f 466/2/2 467/2/2 468/2/2
f 468/2/2 467/2/2 469/2/2
f 470/2/2 471/2/2 472/2/2
f 472/2/2 471/2/2 473/2/2
f 474/1/2 475/1/2 476/1/2
f 476/1/2 475/1/2 477/1/2
f 478/2/2 479/2/2 480/2/2
f 478/2/2 480/2/2 481/2/2
f 481/2/2 480/2/2 482/2/2
f 483/2/2 484/2/2 485/2/2
f 483/2/2 485/2/2 489/2/2
f 485/2/2 486/2/2 489/2/2
f 489/2/2 486/2/2 490/2/2
f 487/2/2 488/2/2 491/2/2
f 491/2/2 488/2/2 492/2/2
f 493/2/2 494/2/2 495/2/2
f 495/2/2 494/2/2 496/2/2
f 493/2/2 495/2/2 498/2/2
f 496/2/2 494/2/2 499/2/2
f 499/2/2 494/2/2 500/2/2
f 497/2/2 498/2/2 502/2/2
f 498/2/2 495/2/2 503/2/2
f 501/2/2 502/2/2 503/2/2
f 502/2/2 498/2/2 503/2/2
f 501/2/2 503/2/2 505/2/2
f 503/2/2 504/2/2 505/2/2
f 505/2/2 504/2/2 506/2/2
f 507/2/2 508/2/2 511/2/2
f 511/2/2 508/2/2 512/2/2
f 509/2/2 510/2/2 513/2/2
f 513/2/2 510/2/2 514/2/2
f 515/2/2 516/2/2 517/2/2
f 517/2/2 516/2/2 518/2/2
f 519/2/2 520/2/2 522/2/2
f 521/1/2 522/1/2 523/1/2
f 522/2/2 520/2/2 524/2/2
f 523/1/2 522/1/2 524/1/2
f 524/2/2 520/2/2 525/2/2
f 528/2/2 529/2/2 530/2/2
f 530/2/2 529/2/2 531/2/2
f 526/2/2 527/2/2 532/2/2
f 532/2/2 527/2/2 533/2/2
f 534/2/2 535/2/2 536/2/2
f 536/2/2 535/2/2 537/2/2
f 538/2/2 539/2/2 540/2/2
f 538/2/2 540/2/2 542/2/2
f 540/2/2 541/2/2 542/2/2
f 542/2/2 541/2/2 543/2/2
f 544/1/2 545/1/2 546/1/2
f 546/1/2 545/1/2 547/1/2
f 548/1/2 549/1/2 550/1/2
f 550/1/2 549/1/2 551/1/2
f 552/1/2 553/1/2 554/1/2
f 554/1/2 553/1/2 555/1/2
f 556/2/2 557/2/2 559/2/2
f 559/2/2 557/2/2 560/2/2
f 558/2/2 559/2/2 563/2/2
f 563/2/2 559/2/2 564/2/2
f 561/2/2 562/2/2 565/2/2
f 565/2/2 562/2/2 566/2/2
f 567/1/2 568/1/2 569/1/2
f 569/1/2 568/1/2 570/1/2
f 571/2/2 572/2/2 574/2/2
f 574/2/2 572/2/2 575/2/2
f 573/2/2 574/2/2 577/2/2
f 575/2/2 576/2/2 577/2/2
f 574/2/2 575/2/2 577/2/2
f 577/2/2 576/2/2 578/2/2
f 578/2/2 576/2/2 579/2/2
f 579/2/2 576/2/2 580/2/2
f 581/2/2 582/2/2 583/2/2
f 583/2/2 582/2/2 584/2/2
f 585/2/2 586/2/2 587/2/2
f 587/2/2 586/2/2 588/2/2
f 585/2/2 587/2/2 591/2/2
f 591/2/2 587/2/2 592/2/2
f 589/2/2 590/2/2 593/2/2
f 593/2/2 590/2/2 594/2/2
f 595/2/2 596/2/2 597/2/2
f 597/2/2 596/2/2 598/2/2
f 599/2/2 600/2/2 603/2/2
f 601/2/2 602/2/2 603/2/2
f 600/2/2 601/2/2 603/2/2
f 603/2/2 602/2/2 604/2/2
f 605/2/2 606/2/2 607/2/2
f 607/2/2 606/2/2 608/2/2
f 608/2/2 609/2/2 610/2/2
f 610/2/2 609/2/2 611/2/2
f 614/2/2 615/2/2 616/2/2
f 616/2/2 615/2/2 617/2/2
f 612/2/2 613/2/2 618/2/2
f 618/2/2 613/2/2 619/2/2
f 619/2/2 613/2/2 620/2/2
f 617/2/2 615/2/2 621/2/2
f 621/2/2 615/2/2 622/2/2
f 623/1/2 624/1/2 625/1/2
f 625/1/2 624/1/2 626/1/2
f 627/2/2 628/2/2 630/2/2
f 629/2/2 630/2/2 631/2/2
f 630/2/2 628/2/2 632/2/2
f 631/2/2 630/2/2 632/2/2
f 633/2/2 634/2/2 635/2/2
f 633/2/2 635/2/2 637/2/2
f 635/2/2 636/2/2 637/2/2
f 637/2/2 636/2/2 638/2/2
f 638/2/2 636/2/2 639/2/2
f 639/2/2 636/2/2 640/2/2
f 641/2/2 642/2/2 644/2/2
f 643/2/2 644/2/2 646/2/2
f 645/2/2 646/2/2 647/2/2
f 646/2/2 644/2/2 648/2/2
f 647/2/2 646/2/2 648/2/2
f 644/2/2 642/2/2 649/2/2
f 648/2/2 644/2/2 649/2/2
f 650/2/2 651/2/2 652/2/2
f 652/2/2 651/2/2 653/2/2
f 656/2/2 657/2/2 658/2/2
f 658/2/2 657/2/2 659/2/2
f 654/2/2 655/2/2 660/2/2
f 656/2/2 658/2/2 662/2/2
f 662/2/2 658/2/2 663/2/2
f 660/2/2 661/2/2 664/2/2
f 654/2/2 660/2/2 664/2/2
f 664/2/2 661/2/2 665/2/2
f 668/2/2 669/2/2 670/2/2
f 670/2/2 669/2/2 671/2/2
f 666/2/2 667/2/2 672/2/2
f 672/2/2 667/2/2 673/2/2
f 674/2/2 675/2/2 678/2/2
f 678/2/2 675/2/2 679/2/2
f 676/2/2 677/2/2 681/2/2
f 680/2/2 681/2/2 682/2/2
f 681/2/2 677/2/2 683/2/2
f 682/2/2 681/2/2 683/2/2
f 684/2/2 685/2/2 686/2/2
f 686/2/2 685/2/2 687/2/2
f 684/2/2 686/2/2 688/2/2
f 688/2/2 686/2/2 689/2/2
f 687/2/2 685/2/2 690/2/2
f 690/2/2 685/2/2 691/2/2
f 684/2/2 688/2/2 692/2/2
f 692/2/2 688/2/2 693/2/2
f 693/2/2 688/2/2 694/2/2
f 694/2/2 688/2/2 695/2/2
f 696/2/2 697/2/2 700/2/2
f 698/2/2 699/2/2 702/2/2
f 702/2/2 699/2/2 703/2/2
f 700/2/2 701/2/2 704/2/2
f 696/2/2 700/2/2 704/2/2
f 704/2/2 701/2/2 705/2/2
f 706/1/2 707/1/2 708/1/2
f 708/1/2 707/1/2 709/1/2
f 710/2/2 711/2/2 713/2/2
f 713/2/2 711/2/2 714/2/2
f 712/2/2 713/2/2 715/2/2
f 715/2/2 713/2/2 716/2/2
f 712/2/2 715/2/2 719/2/2
f 719/2/2 715/2/2 720/2/2
f 717/2/2 718/2/2 721/2/2
f 721/2/2 718/2/2 722/2/2
f 723/2/2 724/2/2 725/2/2
f 725/2/2 724/2/2 726/2/2
f 727/1/2 728/1/2 729/1/2
f 729/1/2 728/1/2 730/1/2
f 731/1/2 732/1/2 733/1/2
f 733/1/2 732/1/2 734/1/2
f 737/2/2 738/2/2 740/2/2
f 738/2/2 739/2/2 740/2/2
f 740/2/2 739/2/2 741/2/2
f 735/2/2 736/2/2 742/2/2
f 742/2/2 736/2/2 743/2/2
f 743/2/2 736/2/2 744/2/2
f 744/2/2 736/2/2 745/2/2
f 743/2/2 744/2/2 750/2/2
f 750/2/2 744/2/2 751/2/2
f 746/2/2 747/2/2 752/2/2
f 752/2/2 747/2/2 753/2/2
f 748/2/2 749/2/2 754/2/2
f 754/2/2 749/2/2 755/2/2
f 756/2/2 757/2/2 760/2/2
f 760/2/2 757/2/2 761/2/2
f 758/2/2 759/2/2 762/2/2
f 762/2/2 759/2/2 763/2/2
f 764/2/2 765/2/2 766/2/2
f 764/2/2 766/2/2 768/2/2
f 766/2/2 767/2/2 768/2/2
f 768/2/2 767/2/2 769/2/2
f 769/2/2 767/2/2 770/2/2
f 770/2/2 771/2/2 772/2/2
f 769/2/2 770/2/2 772/2/2
f 772/2/2 771/2/2 773/2/2
f 769/2/2 772/2/2 774/2/2
f 774/2/2 772/2/2 775/2/2
f 773/2/2 771/2/2 776/2/2
f 776/2/2 771/2/2 777/2/2
f 778/2/2 779/2/2 782/2/2
f 782/2/2 779/2/2 783/2/2
f 780/2/2 781/2/2 784/2/2
f 784/2/2 781/2/2 785/2/2
f 785/2/2 781/2/2 786/2/2
f 787/2/2 788/2/2 789/2/2
f 789/2/2 788/2/2 790/2/2
f 791/1/2 792/1/2 793/1/2
f 793/1/2 792/1/2 794/1/2
f 797/2/2 798/2/2 799/2/2
f 799/2/2 798/2/2 800/2/2
f 795/2/2 796/2/2 801/2/2
f 801/2/2 796/2/2 802/2/2
f 803/2/2 804/2/2 805/2/2
f 805/2/2 804/2/2 806/2/2
f 807/2/2 808/2/2 809/2/2
f 811/2/2 812/2/2 813/2/2
f 807/2/2 809/2/2 814/2/2
f 809/2/2 810/2/2 814/2/2
f 814/2/2 810/2/2 815/2/2
f 811/2/2 813/2/2 817/2/2
f 815/2/2 816/2/2 817/2/2
f 814/2/2 815/2/2 817/2/2
f 813/2/2 814/2/2 817/2/2
f 817/2/2 816/2/2 818/2/2
f 818/2/2 816/2/2 819/2/2
f 819/2/2 816/2/2 820/2/2
f 818/1/2 819/1/2 823/1/2
f 823/1/2 819/1/2 824/1/2
f 821/2/2 822/2/2 825/2/2
f 825/2/2 822/2/2 826/2/2
f 827/2/2 828/2/2 829/2/2
f 827/2/2 829/2/2 831/2/2
f 829/2/2 830/2/2 831/2/2
f 831/2/2 830/2/2 832/2/2
f 833/2/2 834/2/2 835/2/2
f 835/2/2 834/2/2 836/2/2
f 837/2/2 838/2/2 839/2/2
f 839/2/2 838/2/2 840/2/2
f 841/2/2 842/2/2 843/2/2
f 843/2/2 842/2/2 844/2/2
f 845/2/2 846/2/2 847/2/2
f 845/2/2 847/2/2 849/2/2
f 847/2/2 848/2/2 849/2/2
f 849/2/2 848/2/2 850/2/2
f 851/2/2 852/2/2 853/2/2
f 853/2/2 852/2/2 854/2/2
f 854/2/2 852/2/2 855/2/2
f 855/2/2 856/2/2 857/2/2
f 854/2/2 855/2/2 857/2/2
f 857/2/2 856/2/2 858/2/2
f 859/2/2 860/2/2 861/2/2
f 861/2/2 860/2/2 862/2/2
f 859/2/2 861/2/2 863/2/2
f 862/2/2 860/2/2 864/2/2
f 859/2/2 863/2/2 865/2/2
f 863/2/2 864/2/2 865/2/2
f 865/2/2 864/2/2 866/2/2
f 859/2/2 865/2/2 867/2/2
f 866/2/2 864/2/2 868/2/2
f 859/2/2 867/2/2 869/2/2
f 867/2/2 868/2/2 869/2/2
f 864/2/2 860/2/2 870/2/2
f 869/2/2 868/2/2 870/2/2
f 868/2/2 864/2/2 870/2/2
f 873/2/2 874/2/2 875/2/2
f 875/2/2 874/2/2 876/2/2
f 871/2/2 872/2/2 877/2/2
f 873/2/2 875/2/2 878/2/2
f 878/2/2 875/2/2 879/2/2
f 877/2/2 878/2/2 879/2/2
f 877/2/2 879/2/2 881/2/2
f 879/2/2 880/2/2 881/2/2
f 871/2/2 877/2/2 881/2/2
f 881/2/2 880/2/2 882/2/2
f 883/1/2 884/1/2 885/1/2
f 885/1/2 884/1/2 886/1/2
f 887/1/2 888/1/2 889/1/2
f 889/1/2 888/1/2 890/1/2
f 895/2/3 892/2/3 891/2/3
f 896/2/3 892/2/3 895/2/3
f 897/2/3 894/2/3 893/2/3
f 898/2/3 894/2/3 897/2/3
f 901/2/3 900/2/3 899/2/3
f 902/2/3 900/2/3 901/2/3
f 905/2/3 904/2/3 903/2/3
f 906/2/3 904/2/3 905/2/3
f 907/2/3 906/2/3 905/2/3
f 908/2/3 906/2/3 907/2/3
f 911/2/3 910/2/3 909/2/3
f 913/2/3 912/2/3 911/2/3
f 914/2/3 912/2/3 913/2/3
f 915/2/3 911/2/3 909/2/3
f 915/2/3 913/2/3 911/2/3
f 916/2/3 913/2/3 915/2/3
f 919/1/3 918/1/3 917/1/3
f 920/1/3 918/1/3 919/1/3
f 924/2/3 922/2/3 921/2/3
f 925/2/3 922/2/3 924/2/3
f 927/2/3 924/2/3 923/2/3
f 927/2/3 926/2/3 925/2/3
f 927/2/3 925/2/3 924/2/3
f 928/2/3 926/2/3 927/2/3
f 929/2/3 927/2/3 923/2/3
f 930/2/3 927/2/3 929/2/3
f 931/2/3 927/2/3 930/2/3
f 932/2/3 927/2/3 931/2/3
f 933/2/3 927/2/3 932/2/3
f 934/2/3 927/2/3 933/2/3
f 935/2/3 933/2/3 932/2/3
f 936/2/3 933/2/3 935/2/3
f 939/1/3 938/1/3 937/1/3
f 940/1/3 938/1/3 939/1/3
f 943/2/3 942/2/3 941/2/3
f 944/2/3 942/2/3 943/2/3
f 947/2/3 946/2/3 945/2/3
f 948/2/3 946/2/3 947/2/3
f 951/2/3 950/2/3 949/2/3
f 952/2/3 950/2/3 951/2/3
f 955/2/3 954/2/3 953/2/3
f 956/2/3 954/2/3 955/2/3
f 957/2/3 955/2/3 953/2/3
f 959/2/3 957/2/3 953/2/3
f 959/2/3 958/2/3 957/2/3
f 960/2/3 958/2/3 959/2/3
f 964/2/3 962/2/3 961/2/3
f 965/2/3 964/2/3 963/2/3
f 966/2/3 962/2/3 964/2/3
f 966/2/3 964/2/3 965/2/3
f 967/2/3 965/2/3 963/2/3
f 969/2/3 967/2/3 963/2/3
f 969/2/3 968/2/3 967/2/3
f 970/2/3 968/2/3 969/2/3
f 971/2/3 969/2/3 963/2/3
f 972/2/3 969/2/3 971/2/3
f 975/2/3 974/2/3 973/2/3
f 977/2/3 975/2/3 973/2/3
f 977/2/3 976/2/3 975/2/3
f 978/2/3 976/2/3 977/2/3
f 981/1/3 980/1/3 979/1/3
f 982/1/3 980/1/3 981/1/3
f 985/2/3 984/2/3 983/2/3
f 986/2/3 984/2/3 985/2/3
f 987/2/3 984/2/3 986/2/3
f 988/2/3 984/2/3 987/2/3
f 989/2/3 984/2/3 988/2/3
f 992/2/3 991/2/3 990/2/3
f 993/2/3 991/2/3 992/2/3
f 996/2/3 995/2/3 994/2/3
f 997/2/3 995/2/3 996/2/3
f 998/2/3 996/2/3 994/2/3
f 1000/2/3 998/2/3 994/2/3
f 1000/2/3 999/2/3 998/2/3
f 1001/2/3 999/2/3 1000/2/3
f 1002/2/3 999/2/3 1001/2/3
f 1003/2/3 999/2/3 1002/2/3
f 1004/1/3 1003/1/3 1002/1/3
f 1005/1/3 1003/1/3 1004/1/3
f 1008/2/3 1007/2/3 1006/2/3
f 1010/2/3 1008/2/3 1006/2/3
f 1010/2/3 1009/2/3 1008/2/3
f 1011/2/3 1009/2/3 1010/2/3
f 1018/1/3 1017/1/3 1016/1/3
f 1019/1/3 1017/1/3 1018/1/3
f 1021/2/3 1015/2/3 1014/2/3
f 1025/2/3 1021/2/3 1020/2/3
f 1026/2/3 1023/2/3 1022/2/3
f 1027/2/3 1015/2/3 1021/2/3
f 1027/2/3 1025/2/3 1024/2/3
f 1027/2/3 1021/2/3 1025/2/3
f 1029/2/3 1027/2/3 1024/2/3
f 1029/2/3 1028/2/3 1027/2/3
f 1030/2/3 1028/2/3 1029/2/3
f 1031/2/3 1028/2/3 1030/2/3
f 1033/2/3 1013/2/3 1012/2/3
f 1034/2/3 1026/2/3 1022/2/3
f 1035/2/3 1026/2/3 1034/2/3
f 1036/2/3 1032/2/3 1031/2/3
f 1037/2/3 1013/2/3 1033/2/3
f 1038/2/3 1037/2/3 1036/2/3
f 1038/2/3 1036/2/3 1031/2/3
f 1038/2/3 1031/2/3 1030/2/3
f 1039/2/3 1013/2/3 1037/2/3
f 1039/2/3 1037/2/3 1038/2/3
f 1042/1/3 1041/1/3 1040/1/3
f 1043/1/3 1041/1/3 1042/1/3
f 1049/2/3 1046/2/3 1045/2/3
f 1049/2/3 1045/2/3 1044/2/3
f 1050/2/3 1046/2/3 1049/2/3
f 1051/2/3 1048/2/3 1047/2/3
f 1052/2/3 1048/2/3 1051/2/3
f 1057/2/3 1054/2/3 1053/2/3
f 1059/2/3 1056/2/3 1055/2/3
f 1060/2/3 1056/2/3 1059/2/3
f 1061/2/3 1057/2/3 1053/2/3
f 1061/2/3 1058/2/3 1057/2/3
f 1062/2/3 1058/2/3 1061/2/3
f 1063/2/3 1061/2/3 1053/2/3
f 1064/2/3 1061/2/3 1063/2/3
f 1065/2/3 1061/2/3 1064/2/3
f 1069/2/3 1066/2/3 1065/2/3
f 1069/2/3 1065/2/3 1064/2/3
f 1070/2/3 1066/2/3 1069/2/3
f 1072/2/3 1068/2/3 1067/2/3
f 1073/2/3 1072/2/3 1071/2/3
f 1074/2/3 1068/2/3 1072/2/3
f 1074/2/3 1072/2/3 1073/2/3
f 1077/2/3 1076/2/3 1075/2/3
f 1079/2/3 1077/2/3 1075/2/3
f 1079/2/3 1078/2/3 1077/2/3
f 1080/2/3 1078/2/3 1079/2/3
f 1082/2/3 1079/2/3 1075/2/3
f 1083/2/3 1079/2/3 1082/2/3
f 1084/2/3 1078/2/3 1080/2/3
f 1085/2/3 1083/2/3 1082/2/3
f 1085/2/3 1084/2/3 1083/2/3
f 1085/2/3 1082/2/3 1081/2/3
f 1086/2/3 1078/2/3 1084/2/3
f 1086/2/3 1084/2/3 1085/2/3
f 1087/2/3 1078/2/3 1086/2/3
f 1088/2/3 1078/2/3 1087/2/3
f 1089/2/3 1087/2/3 1086/2/3
f 1091/2/3 1089/2/3 1086/2/3
f 1091/2/3 1090/2/3 1089/2/3
f 1092/2/3 1090/2/3 1091/2/3
f 1093/2/3 1090/2/3 1092/2/3
f 1094/2/3 1090/2/3 1093/2/3
f 1095/2/3 1093/2/3 1092/2/3
f 1096/2/3 1093/2/3 1095/2/3
f 1098/2/3 1097/2/3 1096/2/3
f 1100/2/3 1099/2/3 1098/2/3
f 1101/2/3 1099/2/3 1100/2/3
f 1102/2/3 1098/2/3 1096/2/3
f 1102/2/3 1100/2/3 1098/2/3
f 1103/2/3 1100/2/3 1102/2/3
f 1106/2/3 1105/2/3 1104/2/3
f 1107/2/3 1105/2/3 1106/2/3
f 1108/2/3 1105/2/3 1107/2/3
f 1109/2/3 1105/2/3 1108/2/3
f 1110/2/3 1108/2/3 1107/2/3
f 1111/2/3 1108/2/3 1110/2/3
f 1114/2/3 1113/2/3 1112/2/3
f 1115/2/3 1113/2/3 1114/2/3
f 1120/2/3 1117/2/3 1116/2/3
f 1121/2/3 1117/2/3 1120/2/3
f 1124/2/3 1123/2/3 1122/2/3
f 1125/2/3 1123/2/3 1124/2/3
f 1126/2/3 1119/2/3 1118/2/3
f 1129/2/3 1126/2/3 1118/2/3
f 1129/2/3 1127/2/3 1126/2/3
f 1130/2/3 1129/2/3 1128/2/3
f 1131/2/3 1127/2/3 1129/2/3
f 1131/2/3 1129/2/3 1130/2/3
f 1134/2/3 1133/2/3 1132/2/3
f 1135/2/3 1133/2/3 1134/2/3
f 1138/2/3 1137/2/3 1136/2/3
f 1139/2/3 1137/2/3 1138/2/3
f 1141/2/3 1140/2/3 1139/2/3
f 1142/2/3 1140/2/3 1141/2/3
f 1143/2/3 1140/2/3 1142/2/3
f 1145/2/3 1144/2/3 1143/2/3
f 1145/2/3 1143/2/3 1142/2/3
f 1146/2/3 1144/2/3 1145/2/3
f 1149/2/3 1148/2/3 1147/2/3
f 1151/2/3 1149/2/3 1147/2/3
f 1151/2/3 1150/2/3 1149/2/3
f 1152/2/3 1150/2/3 1151/2/3
f 1153/2/3 1150/2/3 1152/2/3
f 1154/2/3 1150/2/3 1153/2/3
f 1156/2/3 1154/2/3 1153/2/3
f 1156/2/3 1155/2/3 1154/2/3
f 1157/2/3 1155/2/3 1156/2/3
f 1160/2/3 1159/2/3 1158/2/3
f 1161/2/3 1159/2/3 1160/2/3
f 1162/2/3 1159/2/3 1161/2/3
f 1163/2/3 1159/2/3 1162/2/3
f 1167/2/3 1165/2/3 1164/2/3
f 1168/2/3 1167/2/3 1166/2/3
f 1169/2/3 1165/2/3 1167/2/3
f 1169/2/3 1167/2/3 1168/2/3
f 1172/2/3 1171/2/3 1170/2/3
f 1174/2/3 1172/2/3 1170/2/3
f 1174/2/3 1173/2/3 1172/2/3
f 1175/2/3 1173/2/3 1174/2/3
f 1178/1/3 1177/1/3 1176/1/3
f 1179/1/3 1177/1/3 1178/1/3
f 1182/1/3 1181/1/3 1180/1/3
f 1183/1/3 1181/1/3 1182/1/3
f 1186/2/3 1185/2/3 1184/2/3
f 1187/2/3 1185/2/3 1186/2/3
f 1190/1/3 1189/1/3 1188/1/3
f 1191/1/3 1189/1/3 1190/1/3
f 1194/1/3 1193/1/3 1192/1/3
f 1195/1/3 1193/1/3 1194/1/3
f 1198/2/3 1197/2/3 1196/2/3
f 1199/2/3 1197/2/3 1198/2/3
f 1200/2/3 1197/2/3 1199/2/3
f 1203/2/3 1202/2/3 1201/2/3
f 1204/2/3 1202/2/3 1203/2/3
f 1205/2/3 1202/2/3 1204/2/3
f 1206/2/3 1202/2/3 1205/2/3
f 1209/2/3 1208/2/3 1207/2/3
f 1210/2/3 1208/2/3 1209/2/3
f 1213/2/3 1212/2/3 1211/2/3
f 1214/2/3 1212/2/3 1213/2/3
f 1217/2/3 1216/2/3 1215/2/3
f 1218/2/3 1216/2/3 1217/2/3
f 1221/1/3 1220/1/3 1219/1/3
f 1222/1/3 1220/1/3 1221/1/3
f 1225/2/3 1224/2/3 1223/2/3
f 1226/2/3 1224/2/3 1225/2/3
f 1229/2/3 1228/2/3 1227/2/3
f 1230/2/3 1228/2/3 1229/2/3
f 1233/1/3 1232/1/3 1231/1/3
f 1234/1/3 1232/1/3 1233/1/3
f 1239/2/3 1236/2/3 1235/2/3
f 1240/2/3 1236/2/3 1239/2/3
f 1241/2/3 1238/2/3 1237/2/3
f 1242/2/3 1238/2/3 1241/2/3
f 1245/1/3 1244/1/3 1243/1/3
f 1246/1/3 1244/1/3 1245/1/3
f 1249/2/3 1248/2/3 1247/2/3
f 1250/2/3 1248/2/3 1249/2/3
f 1253/1/3 1252/1/3 1251/1/3
f 1254/1/3 1252/1/3 1253/1/3
f 1257/1/3 1256/1/3 1255/1/3
f 1258/1/3 1256/1/3 1257/1/3
f 1261/2/3 1260/2/3 1259/2/3
f 1262/2/3 1261/2/3 1259/2/3
f 1263/2/3 1261/2/3 1262/2/3
f 1264/2/3 1262/2/3 1259/2/3
f 1265/2/3 1262/2/3 1264/2/3
f 1268/2/3 1267/2/3 1266/2/3
f 1269/2/3 1267/2/3 1268/2/3
f 1272/2/3 1271/2/3 1270/2/3
f 1273/2/3 1271/2/3 1272/2/3
f 1276/2/3 1275/2/3 1274/2/3
f 1277/2/3 1275/2/3 1276/2/3
f 1279/2/3 1277/2/3 1276/2/3
f 1279/2/3 1278/2/3 1277/2/3
f 1280/2/3 1278/2/3 1279/2/3
f 1283/1/3 1282/1/3 1281/1/3
f 1284/1/3 1282/1/3 1283/1/3
f 1287/1/3 1286/1/3 1285/1/3
f 1288/1/3 1286/1/3 1287/1/3
f 1292/2/3 1290/2/3 1289/2/3
f 1293/2/3 1292/2/3 1291/2/3
f 1294/2/3 1290/2/3 1292/2/3
f 1294/2/3 1292/2/3 1293/2/3
f 1297/2/3 1296/2/3 1295/2/3
f 1298/2/3 1296/2/3 1297/2/3
f 1301/2/3 1300/2/3 1299/2/3
f 1302/2/3 1300/2/3 1301/2/3
f 1305/2/3 1304/2/3 1303/2/3
f 1306/2/3 1304/2/3 1305/2/3
f 1307/2/3 1301/2/3 1299/2/3
f 1308/2/3 1301/2/3 1307/2/3
f 1311/2/3 1310/2/3 1309/2/3
f 1312/2/3 1310/2/3 1311/2/3
f 1315/1/3 1314/1/3 1313/1/3
f 1316/1/3 1314/1/3 1315/1/3
f 1319/2/3 1318/2/3 1317/2/3
f 1320/2/3 1318/2/3 1319/2/3
f 1321/2/4 1322/2/4 1323/2/4
f 1323/2/4 1322/2/4 1324/2/4
f 1325/2/4 1326/2/4 1327/2/4
f 1327/2/4 1326/2/4 1328/2/4
f 1328/2/4 1326/2/4 1329/2/4
f 1329/2/4 1326/2/4 1330/2/4
f 1331/2/4 1332/2/4 1333/2/4
f 1331/2/4 1333/2/4 1334/2/4
f 1334/2/4 1333/2/4 1335/2/4
f 1336/2/4 1337/2/4 1338/2/4
f 1336/2/4 1338/2/4 1339/2/4
f 1339/2/4 1338/2/4 1340/2/4
f 1341/2/4 1342/2/4 1343/2/4
f 1343/2/4 1342/2/4 1344/2/4
f 1345/2/4 1346/2/4 1347/2/4
f 1345/2/4 1347/2/4 1349/2/4
f 1347/2/4 1348/2/4 1349/2/4
f 1349/2/4 1348/2/4 1350/2/4
f 1351/2/4 1352/2/4 1353/2/4
f 1353/2/4 1352/2/4 1354/2/4
f 1355/2/4 1356/2/4 1357/2/4
f 1357/2/4 1356/2/4 1358/2/4
f 1359/2/4 1360/2/4 1362/2/4
f 1362/2/4 1360/2/4 1363/2/4
f 1361/2/4 1362/2/4 1364/2/4
f 1364/2/4 1362/2/4 1365/2/4
f 1366/2/4 1367/2/4 1368/2/4
f 1368/2/4 1367/2/4 1369/2/4
f 1370/2/4 1371/2/4 1372/2/4
f 1372/2/4 1371/2/4 1373/2/4
f 1374/1/4 1375/1/4 1376/1/4
f 1376/1/4 1375/1/4 1377/1/4
f 1378/1/4 1379/1/4 1380/1/4
f 1380/1/4 1379/1/4 1381/1/4
f 1382/2/4 1383/2/4 1384/2/4
f 1384/2/4 1383/2/4 1385/2/4
f 1386/1/4 1387/1/4 1388/1/4
f 1388/1/4 1387/1/4 1389/1/4
f 1390/1/4 1391/1/4 1392/1/4
f 1392/1/4 1391/1/4 1393/1/4
f 1394/2/4 1395/2/4 1396/2/4
f 1396/2/4 1395/2/4 1397/2/4
f 1398/2/4 1399/2/4 1400/2/4
f 1398/2/4 1400/2/4 1402/2/4
f 1400/2/4 1401/2/4 1402/2/4
f 1402/2/4 1401/2/4 1403/2/4
f 1404/1/4 1405/1/4 1406/1/4
f 1406/1/4 1405/1/4 1407/1/4
f 1408/2/4 1409/2/4 1410/2/4
f 1410/2/4 1409/2/4 1411/2/4
f 1412/2/4 1413/2/4 1414/2/4
f 1414/2/4 1413/2/4 1415/2/4
f 1416/2/4 1417/2/4 1418/2/4
f 1418/2/4 1417/2/4 1419/2/4
f 1420/2/4 1421/2/4 1422/2/4
f 1422/2/4 1421/2/4 1423/2/4
f 1424/2/4 1425/2/4 1426/2/4
f 1426/2/4 1425/2/4 1427/2/4
f 1428/2/4 1429/2/4 1431/2/4
f 1430/2/4 1431/2/4 1432/2/4
f 1431/2/4 1429/2/4 1433/2/4
f 1432/2/4 1431/2/4 1433/2/4
f 1434/2/4 1435/2/4 1436/2/4
f 1436/2/4 1435/2/4 1437/2/4
f 1438/1/4 1439/1/4 1440/1/4
f 1440/1/4 1439/1/4 1441/1/4
f 1442/2/4 1443/2/4 1444/2/4
f 1444/2/4 1443/2/4 1445/2/4
f 1446/2/4 1447/2/4 1448/2/4
f 1446/2/4 1448/2/4 1451/2/4
f 1448/2/4 1449/2/4 1451/2/4
f 1451/2/4 1449/2/4 1452/2/4
f 1450/2/4 1451/2/4 1452/2/4
f 1450/2/4 1452/2/4 1454/2/4
f 1452/2/4 1453/2/4 1454/2/4
f 1454/2/4 1453/2/4 1455/2/4
f 1455/2/4 1453/2/4 1456/2/4
f 1456/2/4 1453/2/4 1459/2/4
f 1459/2/4 1453/2/4 1460/2/4
f 1457/2/4 1458/2/4 1463/2/4
f 1463/2/4 1458/2/4 1464/2/4
f 1461/2/4 1462/2/4 1465/2/4
f 1465/2/4 1462/2/4 1466/2/4
f 1467/2/4 1468/2/4 1469/2/4
f 1469/2/4 1468/2/4 1470/2/4
f 1471/2/4 1472/2/4 1473/2/4
f 1473/2/4 1472/2/4 1474/2/4
f 1471/2/4 1473/2/4 1477/2/4
f 1477/2/4 1473/2/4 1478/2/4
f 1475/1/4 1476/1/4 1479/1/4
f 1479/1/4 1476/1/4 1480/1/4
f 1483/2/4 1484/2/4 1485/2/4
f 1485/2/4 1484/2/4 1486/2/4
f 1486/2/4 1484/2/4 1487/2/4
f 1481/2/4 1482/2/4 1488/2/4
f 1486/2/4 1487/2/4 1489/2/4
f 1487/2/4 1488/2/4 1489/2/4
f 1489/2/4 1488/2/4 1490/2/4
f 1490/2/4 1488/2/4 1492/2/4
f 1491/2/4 1492/2/4 1493/2/4
f 1488/2/4 1482/2/4 1494/2/4
f 1493/2/4 1492/2/4 1494/2/4
f 1492/2/4 1488/2/4 1494/2/4
f 1495/1/4 1496/1/4 1497/1/4
f 1497/1/4 1496/1/4 1498/1/4
f 1499/1/4 1500/1/4 1501/1/4
f 1501/1/4 1500/1/4 1502/1/4
f 1503/2/4 1504/2/4 1505/2/4
f 1505/2/4 1504/2/4 1506/2/4
f 1507/2/4 1508/2/4 1509/2/4
f 1507/2/4 1509/2/4 1512/2/4
f 1509/2/4 1510/2/4 1512/2/4
f 1511/2/4 1512/2/4 1515/2/4
f 1512/2/4 1510/2/4 1516/2/4
f 1515/2/4 1512/2/4 1516/2/4
f 1513/2/4 1514/2/4 1517/2/4
f 1517/2/4 1514/2/4 1518/2/4
f 1518/2/4 1514/2/4 1519/2/4
f 1520/2/4 1521/2/4 1522/2/4
f 1522/2/4 1521/2/4 1523/2/4
f 1524/2/4 1525/2/4 1526/2/4
f 1526/2/4 1525/2/4 1527/2/4
f 1527/2/4 1525/2/4 1528/2/4
f 1528/2/4 1525/2/4 1529/2/4
f 1529/2/4 1525/2/4 1530/2/4
f 1530/2/4 1525/2/4 1531/2/4
f 1532/2/4 1533/2/4 1534/2/4
f 1534/2/4 1533/2/4 1535/2/4
f 1536/2/4 1537/2/4 1538/2/4
f 1538/2/4 1537/2/4 1539/2/4
f 1540/2/4 1541/2/4 1542/2/4
f 1542/2/4 1541/2/4 1543/2/4
f 1544/2/4 1545/2/4 1546/2/4
f 1546/2/4 1545/2/4 1547/2/4
f 1540/2/4 1542/2/4 1548/2/4
f 1548/2/4 1542/2/4 1549/2/4
f 1550/2/4 1551/2/4 1552/2/4
f 1552/2/4 1551/2/4 1553/2/4
f 1554/2/4 1555/2/4 1557/2/4
f 1557/2/4 1555/2/4 1558/2/4
f 1556/2/4 1557/2/4 1558/2/4
f 1556/2/4 1558/2/4 1560/2/4
f 1558/2/4 1559/2/4 1560/2/4
f 1560/2/4 1559/2/4 1561/2/4
f 1556/2/4 1560/2/4 1562/2/4
f 1562/2/4 1560/2/4 1563/2/4
f 1564/2/4 1565/2/4 1566/2/4
f 1566/2/4 1565/2/4 1567/2/4
f 1567/2/4 1565/2/4 1568/2/4
f 1569/2/4 1570/2/4 1571/2/4
f 1571/2/4 1570/2/4 1572/2/4
f 1573/2/4 1574/2/4 1575/2/4
f 1575/2/4 1574/2/4 1576/2/4
f 1579/2/4 1580/2/4 1581/2/4
f 1581/2/4 1580/2/4 1582/2/4
f 1577/2/4 1578/2/4 1583/2/4
f 1583/2/4 1578/2/4 1584/2/4
f 1585/2/4 1586/2/4 1588/2/4
f 1587/2/4 1588/2/4 1589/2/4
f 1588/2/4 1586/2/4 1590/2/4
f 1589/2/4 1588/2/4 1590/2/4
f 1591/1/4 1592/1/4 1593/1/4
f 1593/1/4 1592/1/4 1594/1/4
f 1595/1/4 1596/1/4 1597/1/4
f 1597/1/4 1596/1/4 1598/1/4
f 1599/2/4 1600/2/4 1601/2/4
f 1599/2/4 1601/2/4 1603/2/4
f 1601/2/4 1602/2/4 1603/2/4
f 1603/2/4 1602/2/4 1604/2/4
f 1605/1/4 1606/1/4 1607/1/4
f 1607/1/4 1606/1/4 1608/1/4
f 1609/2/4 1610/2/4 1611/2/4
f 1611/2/4 1610/2/4 1612/2/4
f 1612/2/4 1610/2/4 1613/2/4
f 1613/2/4 1610/2/4 1614/2/4
f 1612/2/4 1613/2/4 1615/2/4
f 1615/2/4 1613/2/4 1616/2/4
f 1617/2/4 1618/2/4 1621/2/4
f 1621/2/4 1618/2/4 1622/2/4
f 1622/2/4 1618/2/4 1623/2/4
f 1623/2/4 1618/2/4 1624/2/4
f 1624/2/4 1618/2/4 1626/2/4
f 1625/2/4 1626/2/4 1627/2/4
f 1626/2/4 1618/2/4 1628/2/4
f 1627/2/4 1626/2/4 1628/2/4
f 1619/2/4 1620/2/4 1629/2/4
f 1630/2/4 1631/2/4 1632/2/4
f 1632/2/4 1631/2/4 1633/2/4
f 1628/2/4 1618/2/4 1637/2/4
f 1636/2/4 1637/2/4 1638/2/4
f 1637/2/4 1618/2/4 1639/2/4
f 1638/2/4 1637/2/4 1639/2/4
f 1634/2/4 1635/2/4 1641/2/4
f 1640/2/4 1641/2/4 1642/2/4
f 1641/2/4 1635/2/4 1643/2/4
f 1642/2/4 1641/2/4 1643/2/4
f 1619/2/4 1629/2/4 1644/2/4
f 1619/2/4 1644/2/4 1645/2/4
f 1645/2/4 1644/2/4 1646/2/4
f 1647/2/4 1648/2/4 1649/2/4
f 1649/2/4 1648/2/4 1650/2/4
f 1651/2/4 1652/2/4 1653/2/4
f 1653/2/4 1652/2/4 1654/2/4
f 1655/2/4 1656/2/4 1657/2/4
f 1657/2/4 1656/2/4 1658/2/4
f 1655/2/4 1657/2/4 1659/2/4
f 1658/2/4 1656/2/4 1660/2/4
f 1655/2/4 1659/2/4 1661/2/4
f 1659/2/4 1660/2/4 1661/2/4
f 1660/2/4 1656/2/4 1662/2/4
f 1661/2/4 1660/2/4 1662/2/4
f 1663/2/4 1664/2/4 1665/2/4
f 1665/2/4 1664/2/4 1666/2/4
f 1663/2/4 1665/2/4 1667/2/4
f 1667/2/4 1665/2/4 1668/2/4
f 1669/1/4 1670/1/4 1671/1/4
f 1671/1/4 1670/1/4 1672/1/4
f 1673/2/4 1674/2/4 1676/2/4
f 1675/2/4 1676/2/4 1677/2/4
f 1676/2/4 1674/2/4 1678/2/4
f 1677/2/4 1676/2/4 1678/2/4
f 1681/2/4 1682/2/4 1683/2/4
f 1683/2/4 1682/2/4 1684/2/4
f 1679/2/4 1680/2/4 1685/2/4
f 1685/1/4 1686/1/4 1687/1/4
f 1679/2/4 1685/2/4 1687/2/4
f 1687/1/4 1686/1/4 1688/1/4
f 1689/2/4 1690/2/4 1692/2/4
f 1690/2/4 1691/2/4 1692/2/4
f 1692/2/4 1691/2/4 1693/2/4
f 1679/2/4 1687/2/4 1694/2/4
f 1694/2/4 1687/2/4 1695/2/4
f 1696/2/4 1697/2/4 1698/2/4
f 1698/2/4 1697/2/4 1699/2/4
f 1700/2/4 1701/2/4 1703/2/4
f 1703/2/4 1701/2/4 1704/2/4
f 1703/2/4 1704/2/4 1706/2/4
f 1704/2/4 1705/2/4 1706/2/4
f 1702/2/4 1703/2/4 1706/2/4
f 1706/2/4 1705/2/4 1707/2/4
f 1702/2/4 1706/2/4 1708/2/4
f 1708/2/4 1706/2/4 1709/2/4
f 1702/2/4 1708/2/4 1712/2/4
f 1710/2/4 1711/2/4 1713/2/4
f 1702/2/4 1712/2/4 1714/2/4
f 1712/2/4 1713/2/4 1714/2/4
f 1714/2/4 1713/2/4 1715/2/4
f 1713/2/4 1711/2/4 1716/2/4
f 1715/2/4 1713/2/4 1716/2/4
f 1715/2/4 1716/2/4 1717/2/4
f 1717/2/4 1716/2/4 1718/2/4
f 1718/2/4 1716/2/4 1719/2/4
f 1719/2/4 1716/2/4 1720/2/4
f 1721/2/4 1722/2/4 1723/2/4
f 1723/2/4 1722/2/4 1724/2/4
f 1724/2/4 1722/2/4 1725/2/4
f 1725/2/4 1722/2/4 1726/2/4
f 1727/2/4 1728/2/4 1729/2/4
f 1729/2/4 1728/2/4 1730/2/4
f 1726/2/4 1722/2/4 1732/2/4
f 1732/2/4 1722/2/4 1733/2/4
f 1731/2/4 1732/2/4 1734/2/4
f 1734/2/4 1732/2/4 1735/2/4
f 1735/2/4 1732/2/4 1737/2/4
f 1737/2/4 1732/2/4 1738/2/4
f 1736/2/4 1737/2/4 1738/2/4
f 1738/2/4 1732/2/4 1739/2/4
f 1736/2/4 1738/2/4 1741/2/4
f 1741/2/4 1738/2/4 1742/2/4
f 1740/2/4 1741/2/4 1742/2/4
f 1742/2/4 1738/2/4 1743/2/4
f 1740/2/4 1742/2/4 1744/2/4
f 1744/2/4 1742/2/4 1745/2/4
f 1740/2/4 1744/2/4 1747/2/4
f 1747/2/4 1744/2/4 1748/2/4
f 1745/2/4 1746/2/4 1749/2/4
f 1749/2/4 1746/2/4 1750/2/4
f 1751/1/4 1752/1/4 1753/1/4
f 1753/1/4 1752/1/4 1754/1/4
f 1755/2/4 1756/2/4 1757/2/4
f 1757/2/4 1756/2/4 1758/2/4
f 1758/2/4 1756/2/4 1759/2/4
f 1758/2/4 1759/2/4 1761/2/4
f 1759/2/4 1760/2/4 1761/2/4
f 1761/2/4 1760/2/4 1762/2/4
f 1755/2/4 1757/2/4 1763/2/4
f 1762/2/4 1760/2/4 1766/2/4
f 1763/2/4 1764/2/4 1767/2/4
f 1755/2/4 1763/2/4 1767/2/4
f 1767/2/4 1764/2/4 1768/2/4
f 1765/2/4 1766/2/4 1771/2/4
f 1766/2/4 1760/2/4 1772/2/4
f 1771/2/4 1766/2/4 1772/2/4
f 1773/2/4 1774/2/4 1775/2/4
f 1775/2/4 1774/2/4 1776/2/4
f 1769/2/4 1770/2/4 1777/2/4
f 1777/2/4 1770/2/4 1778/2/4
f 1779/2/4 1780/2/4 1781/2/4
f 1781/2/4 1780/2/4 1782/2/4
f 1785/2/5 1784/2/5 1783/2/5
f 1787/2/5 1785/2/5 1783/2/5
f 1787/2/5 1786/2/5 1785/2/5
f 1788/2/5 1786/2/5 1787/2/5
f 1789/2/5 1786/2/5 1788/2/5
f 1791/2/5 1790/2/5 1789/2/5
f 1793/2/5 1789/2/5 1788/2/5
f 1793/2/5 1792/2/5 1791/2/5
f 1793/2/5 1791/2/5 1789/2/5
f 1794/2/5 1792/2/5 1793/2/5
f 1796/2/5 1792/2/5 1794/2/5
f 1797/2/5 1792/2/5 1796/2/5
f 1797/2/5 1796/2/5 1795/2/5
f 1798/2/5 1792/2/5 1797/2/5
f 1799/2/5 1797/2/5 1795/2/5
f 1801/2/5 1799/2/5 1795/2/5
f 1801/2/5 1800/2/5 1799/2/5
f 1802/2/5 1800/2/5 1801/2/5
f 1803/2/5 1801/2/5 1795/2/5
f 1804/2/5 1801/2/5 1803/2/5
f 1806/2/5 1801/2/5 1804/2/5
f 1807/2/5 1806/2/5 1805/2/5
f 1808/2/5 1801/2/5 1806/2/5
f 1808/2/5 1806/2/5 1807/2/5
f 1813/2/5 1810/2/5 1809/2/5
f 1814/2/5 1810/2/5 1813/2/5
f 1815/2/5 1812/2/5 1811/2/5
f 1816/2/5 1812/2/5 1815/2/5
f 1817/2/5 1812/2/5 1816/2/5
f 1818/2/5 1812/2/5 1817/2/5
f 1821/2/5 1820/2/5 1819/2/5
f 1823/2/5 1821/2/5 1819/2/5
f 1823/2/5 1822/2/5 1821/2/5
f 1824/2/5 1822/2/5 1823/2/5
f 1826/2/5 1822/2/5 1824/2/5
f 1827/2/5 1822/2/5 1826/2/5
f 1827/2/5 1826/2/5 1825/2/5
f 1828/2/5 1822/2/5 1827/2/5
f 1829/2/5 1827/2/5 1825/2/5
f 1830/2/5 1827/2/5 1829/2/5
f 1833/2/5 1832/2/5 1831/2/5
f 1834/2/5 1832/2/5 1833/2/5
f 1835/2/5 1833/2/5 1831/2/5
f 1836/2/5 1833/2/5 1835/2/5
f 1840/2/5 1838/2/5 1837/2/5
f 1841/2/5 1840/2/5 1839/2/5
f 1842/2/5 1838/2/5 1840/2/5
f 1842/2/5 1840/2/5 1841/2/5
f 1845/2/5 1844/2/5 1843/2/5
f 1846/2/5 1844/2/5 1845/2/5
f 1847/2/5 1844/2/5 1846/2/5
f 1850/2/5 1847/2/5 1846/2/5
f 1850/2/5 1848/2/5 1847/2/5
f 1851/2/5 1848/2/5 1850/2/5
f 1853/2/5 1850/2/5 1849/2/5
f 1853/2/5 1852/2/5 1851/2/5
f 1853/2/5 1851/2/5 1850/2/5
f 1854/2/5 1852/2/5 1853/2/5
f 1855/2/5 1852/2/5 1854/2/5
f 1856/2/5 1852/2/5 1855/2/5
f 1859/1/5 1858/1/5 1857/1/5
f 1860/1/5 1858/1/5 1859/1/5
f 1863/2/5 1862/2/5 1861/2/5
f 1864/2/5 1862/2/5 1863/2/5
f 1869/2/5 1868/2/5 1867/2/5
f 1870/2/5 1868/2/5 1869/2/5
f 1871/2/5 1866/2/5 1865/2/5
f 1872/2/5 1866/2/5 1871/2/5
f 1873/2/5 1871/2/5 1865/2/5
f 1874/2/5 1871/2/5 1873/2/5
f 1877/2/5 1873/2/5 1865/2/5
f 1878/2/5 1873/2/5 1877/2/5
f 1879/1/5 1876/1/5 1875/1/5
f 1880/1/5 1876/1/5 1879/1/5
f 1885/2/5 1884/2/5 1883/2/5
f 1886/2/5 1884/2/5 1885/2/5
f 1887/2/5 1882/2/5 1881/2/5
f 1888/2/5 1882/2/5 1887/2/5
f 1891/2/5 1890/2/5 1889/2/5
f 1892/2/5 1890/2/5 1891/2/5
f 1897/2/5 1896/2/5 1895/2/5
f 1898/2/5 1896/2/5 1897/2/5
f 1901/2/5 1894/2/5 1893/2/5
f 1902/2/5 1894/2/5 1901/2/5
f 1904/2/5 1900/2/5 1899/2/5
f 1905/2/5 1900/2/5 1904/2/5
f 1905/2/5 1904/2/5 1903/2/5
f 1906/2/5 1900/2/5 1905/2/5
f 1907/2/5 1900/2/5 1906/2/5
f 1908/2/5 1900/2/5 1907/2/5
f 1909/2/5 1905/2/5 1903/2/5
f 1910/2/5 1905/2/5 1909/2/5
f 1913/2/5 1912/2/5 1911/2/5
f 1914/2/5 1912/2/5 1913/2/5
f 1917/2/5 1916/2/5 1915/2/5
f 1918/2/5 1916/2/5 1917/2/5
f 1921/2/5 1920/2/5 1919/2/5
f 1922/2/5 1920/2/5 1921/2/5
f 1925/2/5 1924/2/5 1923/2/5
f 1926/2/5 1924/2/5 1925/2/5
f 1929/1/5 1928/1/5 1927/1/5
f 1930/1/5 1928/1/5 1929/1/5
f 1933/2/5 1932/2/5 1931/2/5
f 1934/2/5 1932/2/5 1933/2/5
f 1935/2/5 1932/2/5 1934/2/5
f 1938/1/5 1937/1/5 1936/1/5
f 1939/1/5 1937/1/5 1938/1/5
f 1942/2/5 1941/2/5 1940/2/5
f 1943/2/5 1941/2/5 1942/2/5
f 1946/1/5 1945/1/5 1944/1/5
f 1947/1/5 1945/1/5 1946/1/5
f 1950/2/5 1949/2/5 1948/2/5
f 1951/2/5 1949/2/5 1950/2/5
f 1954/2/5 1953/2/5 1952/2/5
f 1955/2/5 1953/2/5 1954/2/5
f 1962/2/5 1957/2/5 1956/2/5
f 1963/2/5 1957/2/5 1962/2/5
f 1964/2/5 1959/2/5 1958/2/5
f 1965/2/5 1959/2/5 1964/2/5
f 1967/2/5 1961/2/5 1960/2/5
f 1968/2/5 1961/2/5 1967/2/5
f 1969/2/5 1967/2/5 1966/2/5
f 1970/2/5 1967/2/5 1969/2/5
f 1973/2/5 1972/2/5 1971/2/5
f 1974/2/5 1972/2/5 1973/2/5
f 1979/2/5 1978/2/5 1977/2/5
f 1980/2/5 1978/2/5 1979/2/5
f 1981/2/5 1979/2/5 1977/2/5
f 1982/2/5 1979/2/5 1981/2/5
f 1983/2/5 1976/2/5 1975/2/5
f 1984/2/5 1976/2/5 1983/2/5
f 1985/2/5 1981/2/5 1977/2/5
f 1986/2/5 1981/2/5 1985/2/5
f 1991/2/5 1990/2/5 1989/2/5
f 1992/2/5 1990/2/5 1991/2/5
f 1993/2/5 1990/2/5 1992/2/5
f 1994/2/5 1990/2/5 1993/2/5
f 1996/2/5 1995/2/5 1994/2/5
f 1997/2/5 1995/2/5 1996/2/5
f 1998/2/5 1988/2/5 1987/2/5
f 1999/2/5 1988/2/5 1998/2/5
f 2002/2/5 2001/2/5 2000/2/5
f 2003/2/5 2001/2/5 2002/2/5
f 2008/2/5 2005/2/5 2004/2/5
f 2009/2/5 2005/2/5 2008/2/5
f 2010/2/5 2007/2/5 2006/2/5
f 2011/2/5 2007/2/5 2010/2/5
f 2014/2/5 2013/2/5 2012/2/5
f 2015/2/5 2013/2/5 2014/2/5
f 2018/2/5 2017/2/5 2016/2/5
f 2020/2/5 2018/2/5 2016/2/5
f 2020/2/5 2019/2/5 2018/2/5
f 2021/2/5 2019/2/5 2020/2/5
f 2024/2/5 2023/2/5 2022/2/5
f 2025/2/5 2023/2/5 2024/2/5
f 2026/2/5 2019/2/5 2021/2/5
f 2027/2/5 2019/2/5 2026/2/5
f 2028/2/5 2026/2/5 2021/2/5
f 2029/2/5 2026/2/5 2028/2/5
f 2032/2/5 2031/2/5 2030/2/5
f 2033/2/5 2031/2/5 2032/2/5
f 2036/1/5 2035/1/5 2034/1/5
f 2037/1/5 2035/1/5 2036/1/5
f 2040/2/5 2039/2/5 2038/2/5
f 2041/2/5 2039/2/5 2040/2/5
f 2044/2/5 2043/2/5 2042/2/5
f 2045/2/5 2043/2/5 2044/2/5
f 2047/2/5 2046/2/5 2045/2/5
f 2048/2/5 2046/2/5 2047/2/5
f 2051/2/5 2050/2/5 2049/2/5
f 2052/2/5 2050/2/5 2051/2/5
f 2054/2/5 2050/2/5 2052/2/5
f 2055/2/5 2054/2/5 2053/2/5
f 2056/2/5 2050/2/5 2054/2/5
f 2056/2/5 2054/2/5 2055/2/5
f 2059/2/5 2058/2/5 2057/2/5
f 2060/2/5 2058/2/5 2059/2/5
f 2064/2/5 2062/2/5 2061/2/5
f 2064/2/5 2063/2/5 2062/2/5
f 2065/2/5 2063/2/5 2064/2/5
f 2068/2/5 2067/2/5 2066/2/5
f 2069/2/5 2067/2/5 2068/2/5
f 2072/2/5 2071/2/5 2070/2/5
f 2073/2/5 2071/2/5 2072/2/5
f 2074/2/5 2071/2/5 2073/2/5
f 2075/2/5 2071/2/5 2074/2/5
f 2076/2/5 2071/2/5 2075/2/5
f 2077/2/5 2071/2/5 2076/2/5
f 2078/2/5 2071/2/5 2077/2/5
f 2079/2/5 2071/2/5 2078/2/5
f 2082/2/5 2081/2/5 2080/2/5
f 2083/2/5 2081/2/5 2082/2/5
f 2084/2/5 2074/2/5 2073/2/5
f 2085/2/5 2074/2/5 2084/2/5
f 2088/2/5 2087/2/5 2086/2/5
f 2089/2/5 2087/2/5 2088/2/5
f 2094/2/5 2091/2/5 2090/2/5
f 2095/2/5 2091/2/5 2094/2/5
f 2096/2/5 2093/2/5 2092/2/5
f 2097/2/5 2093/2/5 2096/2/5
f 2100/2/5 2099/2/5 2098/2/5
f 2101/2/5 2099/2/5 2100/2/5
f 2106/2/5 2105/2/5 2104/2/5
f 2107/2/5 2105/2/5 2106/2/5
f 2108/2/5 2103/2/5 2102/2/5
f 2109/2/5 2103/2/5 2108/2/5
f 2112/2/5 2111/2/5 2110/2/5
f 2113/2/5 2111/2/5 2112/2/5
f 2116/1/5 2115/1/5 2114/1/5
f 2117/1/5 2115/1/5 2116/1/5
f 2120/1/5 2119/1/5 2118/1/5
f 2121/1/5 2119/1/5 2120/1/5
f 2124/1/5 2123/1/5 2122/1/5
f 2125/1/5 2123/1/5 2124/1/5
f 2128/1/5 2127/1/5 2126/1/5
f 2129/1/5 2127/1/5 2128/1/5
f 2132/1/5 2131/1/5 2130/1/5
f 2133/1/5 2131/1/5 2132/1/5
f 2136/1/5 2135/1/5 2134/1/5
f 2137/1/5 2135/1/5 2136/1/5
f 2140/2/5 2139/2/5 2138/2/5
f 2141/2/5 2139/2/5 2140/2/5
f 2144/1/5 2143/1/5 2142/1/5
f 2145/1/5 2143/1/5 2144/1/5
f 2148/2/5 2147/2/5 2146/2/5
f 2149/2/5 2147/2/5 2148/2/5
f 2152/2/5 2151/2/5 2150/2/5
f 2153/2/5 2151/2/5 2152/2/5
f 2155/2/5 2154/2/5 2153/2/5
f 2156/2/5 2154/2/5 2155/2/5
f 2159/2/5 2158/2/5 2157/2/5
f 2160/2/5 2158/2/5 2159/2/5
f 2163/2/5 2162/2/5 2161/2/5
f 2164/2/5 2162/2/5 2163/2/5
f 2167/2/5 2166/2/5 2165/2/5
f 2168/2/5 2166/2/5 2167/2/5
f 2171/1/5 2170/1/5 2169/1/5
f 2172/1/5 2170/1/5 2171/1/5
f 2175/1/5 2174/1/5 2173/1/5
f 2176/1/5 2174/1/5 2175/1/5
f 2177/2/6 2178/2/6 2179/2/6
f 2179/2/6 2178/2/6 2180/2/6
f 2181/2/6 2182/2/6 2183/2/6
f 2183/2/6 2182/2/6 2184/2/6
f 2177/2/6 2179/2/6 2187/2/6
f 2187/2/6 2179/2/6 2188/2/6
f 2188/2/6 2179/2/6 2189/2/6
f 2188/2/6 2189/2/6 2192/2/6
f 2189/2/6 2190/2/6 2192/2/6
f 2192/2/6 2190/2/6 2193/2/6
f 2191/2/6 2192/2/6 2195/2/6
f 2193/2/6 2194/2/6 2195/2/6
f 2192/2/6 2193/2/6 2195/2/6
f 2195/2/6 2194/2/6 2196/2/6
f 2185/2/6 2186/2/6 2197/2/6
f 2197/2/6 2186/2/6 2198/2/6
f 2199/2/6 2200/2/6 2201/2/6
f 2201/2/6 2200/2/6 2202/2/6
f 2203/2/6 2204/2/6 2205/2/6
f 2205/2/6 2204/2/6 2206/2/6
f 2209/2/6 2210/2/6 2213/2/6
f 2213/2/6 2210/2/6 2214/2/6
f 2211/2/6 2212/2/6 2215/2/6
f 2207/2/6 2208/2/6 2217/2/6
f 2217/2/6 2208/2/6 2218/2/6
f 2215/2/6 2216/2/6 2219/2/6
f 2211/2/6 2215/2/6 2219/2/6
f 2219/2/6 2216/2/6 2220/2/6
f 2221/2/6 2222/2/6 2223/2/6
f 2223/2/6 2222/2/6 2224/2/6
f 2225/2/6 2226/2/6 2227/2/6
f 2227/2/6 2226/2/6 2228/2/6
f 2229/2/6 2230/2/6 2232/2/6
f 2230/2/6 2231/2/6 2232/2/6
f 2232/2/6 2231/2/6 2233/2/6
f 2234/2/6 2235/2/6 2236/2/6
f 2236/2/6 2235/2/6 2237/2/6
f 2234/2/6 2236/2/6 2239/2/6
f 2238/2/6 2239/2/6 2240/2/6
f 2239/2/6 2236/2/6 2241/2/6
f 2240/2/6 2239/2/6 2241/2/6
f 2242/1/6 2243/1/6 2244/1/6
f 2244/1/6 2243/1/6 2245/1/6
f 2246/2/6 2247/2/6 2248/2/6
f 2248/2/6 2247/2/6 2249/2/6
f 2249/2/6 2247/2/6 2250/2/6
f 2249/2/6 2250/2/6 2253/2/6
f 2253/2/6 2250/2/6 2254/2/6
f 2251/2/6 2252/2/6 2255/2/6
f 2255/2/6 2252/2/6 2256/2/6
f 2259/2/6 2260/2/6 2263/2/6
f 2263/2/6 2260/2/6 2264/2/6
f 2257/2/6 2258/2/6 2265/2/6
f 2265/2/6 2258/2/6 2266/2/6
f 2261/2/6 2262/2/6 2268/2/6
f 2267/2/6 2268/2/6 2269/2/6
f 2269/2/6 2268/2/6 2270/2/6
f 2270/2/6 2268/2/6 2271/2/6
f 2271/2/6 2268/2/6 2272/2/6
f 2272/2/6 2268/2/6 2273/2/6
f 2268/2/6 2262/2/6 2274/2/6
f 2273/2/6 2268/2/6 2274/2/6
f 2274/2/6 2262/2/6 2275/2/6
f 2275/2/6 2262/2/6 2276/2/6
f 2277/2/6 2278/2/6 2279/2/6
f 2279/2/6 2278/2/6 2280/2/6
f 2281/2/6 2282/2/6 2284/2/6
f 2283/2/6 2284/2/6 2285/2/6
f 2284/2/6 2282/2/6 2286/2/6
f 2285/2/6 2284/2/6 2286/2/6
f 2283/2/6 2285/2/6 2287/2/6
f 2287/2/6 2285/2/6 2288/2/6
f 2289/2/6 2290/2/6 2292/2/6
f 2291/2/6 2292/2/6 2293/2/6
f 2293/2/6 2292/2/6 2294/2/6
f 2294/2/6 2292/2/6 2299/2/6
f 2292/2/6 2290/2/6 2300/2/6
f 2299/2/6 2292/2/6 2300/2/6
f 2295/2/6 2296/2/6 2301/2/6
f 2297/2/6 2298/2/6 2302/2/6
f 2300/2/6 2290/2/6 2303/2/6
f 2303/2/6 2290/2/6 2304/2/6
f 2295/2/6 2301/2/6 2307/2/6
f 2301/2/6 2302/2/6 2307/2/6
f 2307/2/6 2302/2/6 2308/2/6
f 2302/2/6 2298/2/6 2309/2/6
f 2308/2/6 2302/2/6 2309/2/6
f 2305/2/6 2306/2/6 2310/2/6
f 2310/2/6 2306/2/6 2311/2/6
f 2305/2/6 2310/2/6 2312/2/6
f 2312/2/6 2310/2/6 2313/2/6
f 2313/2/6 2310/2/6 2314/2/6
f 2309/2/6 2298/2/6 2316/2/6
f 2315/2/6 2316/2/6 2317/2/6
f 2316/2/6 2298/2/6 2318/2/6
f 2317/2/6 2316/2/6 2318/2/6
f 2318/2/6 2298/2/6 2319/2/6
f 2319/2/6 2298/2/6 2320/2/6
f 2321/2/6 2322/2/6 2323/2/6
f 2323/2/6 2322/2/6 2324/2/6
f 2315/2/6 2317/2/6 2325/2/6
f 2325/2/6 2317/2/6 2326/2/6
f 2326/2/6 2317/2/6 2327/2/6
f 2327/2/6 2317/2/6 2328/2/6
f 2329/1/6 2330/1/6 2331/1/6
f 2331/1/6 2330/1/6 2332/1/6
f 2333/2/6 2334/2/6 2336/2/6
f 2335/2/6 2336/2/6 2337/2/6
f 2336/2/6 2334/2/6 2338/2/6
f 2337/2/6 2336/2/6 2338/2/6
f 2341/1/6 2342/1/6 2343/1/6
f 2343/1/6 2342/1/6 2344/1/6
f 2339/2/6 2340/2/6 2345/2/6
f 2345/2/6 2340/2/6 2346/2/6
f 2339/2/6 2345/2/6 2348/2/6
f 2348/2/6 2345/2/6 2349/2/6
f 2351/1/6 2352/1/6 2353/1/6
f 2353/1/6 2352/1/6 2354/1/6
f 2347/2/6 2348/2/6 2355/2/6
f 2348/2/6 2349/2/6 2355/2/6
f 2349/2/6 2350/2/6 2355/2/6
f 2355/2/6 2350/2/6 2356/2/6
f 2347/2/6 2355/2/6 2357/2/6
f 2357/2/6 2355/2/6 2358/2/6
f 2358/2/6 2355/2/6 2359/2/6
f 2359/2/6 2355/2/6 2360/2/6
f 2358/2/6 2359/2/6 2361/2/6
f 2361/2/6 2359/2/6 2362/2/6
f 2363/2/6 2364/2/6 2365/2/6
f 2365/2/6 2364/2/6 2366/2/6
f 2366/2/6 2364/2/6 2367/2/6
f 2367/2/6 2364/2/6 2368/2/6
f 2369/1/6 2370/1/6 2372/1/6
f 2372/1/6 2370/1/6 2373/1/6
f 2371/2/6 2372/2/6 2375/2/6
f 2373/2/6 2374/2/6 2375/2/6
f 2372/2/6 2373/2/6 2375/2/6
f 2375/2/6 2374/2/6 2376/2/6
f 2366/2/6 2367/2/6 2377/2/6
f 2377/2/6 2367/2/6 2378/2/6
f 2376/2/6 2374/2/6 2380/2/6
f 2379/2/6 2380/2/6 2381/2/6
f 2380/2/6 2374/2/6 2381/2/6
f 2381/2/6 2374/2/6 2382/2/6
f 2379/2/6 2381/2/6 2383/2/6
f 2383/2/6 2381/2/6 2384/2/6
f 2385/2/6 2386/2/6 2387/2/6
f 2387/2/6 2386/2/6 2388/2/6
f 2384/2/6 2381/2/6 2389/2/6
f 2389/2/6 2381/2/6 2390/2/6
f 2384/2/6 2389/2/6 2391/2/6
f 2391/2/6 2389/2/6 2392/2/6
f 2393/2/6 2394/2/6 2395/2/6
f 2393/2/6 2395/2/6 2397/2/6
f 2395/2/6 2396/2/6 2397/2/6
f 2397/2/6 2396/2/6 2398/2/6
f 2401/2/6 2402/2/6 2403/2/6
f 2403/2/6 2402/2/6 2404/2/6
f 2399/2/6 2400/2/6 2405/2/6
f 2405/2/6 2400/2/6 2406/2/6
f 2406/2/6 2400/2/6 2407/2/6
f 2407/2/6 2400/2/6 2408/2/6
f 2409/2/6 2410/2/6 2411/2/6
f 2411/2/6 2410/2/6 2412/2/6
f 2412/2/6 2410/2/6 2413/2/6
f 2413/2/6 2410/2/6 2414/2/6
f 2415/2/6 2416/2/6 2419/2/6
f 2419/2/6 2416/2/6 2420/2/6
f 2417/2/6 2418/2/6 2423/2/6
f 2423/2/6 2418/2/6 2424/2/6
f 2421/2/6 2422/2/6 2425/2/6
f 2425/2/6 2422/2/6 2426/2/6
f 2427/2/6 2428/2/6 2429/2/6
f 2427/2/6 2429/2/6 2430/2/6
f 2430/2/6 2429/2/6 2431/2/6
f 2427/2/6 2430/2/6 2432/2/6
f 2432/2/6 2430/2/6 2433/2/6
f 2433/2/6 2430/2/6 2434/2/6
f 2435/2/6 2436/2/6 2439/2/6
f 2439/2/6 2436/2/6 2440/2/6
f 2437/2/6 2438/2/6 2441/2/6
f 2441/2/6 2438/2/6 2442/2/6
f 2443/1/6 2444/1/6 2445/1/6
f 2445/1/6 2444/1/6 2446/1/6
f 2447/1/6 2448/1/6 2449/1/6
f 2449/1/6 2448/1/6 2450/1/6
f 2451/2/6 2452/2/6 2453/2/6
f 2453/2/6 2452/2/6 2454/2/6
f 2455/2/6 2456/2/6 2457/2/6
f 2455/2/6 2457/2/6 2459/2/6
f 2457/2/6 2458/2/6 2459/2/6
f 2459/2/6 2458/2/6 2460/2/6
f 2460/2/6 2458/2/6 2461/2/6
f 2461/2/6 2458/2/6 2462/2/6
f 2463/2/6 2464/2/6 2465/2/6
f 2465/2/6 2464/2/6 2466/2/6
f 2467/2/6 2468/2/6 2469/2/6
f 2469/2/6 2468/2/6 2470/2/6
f 2473/2/6 2474/2/6 2475/2/6
f 2471/2/6 2472/2/6 2477/2/6
f 2475/2/6 2476/2/6 2478/2/6
f 2473/2/6 2475/2/6 2478/2/6
f 2471/2/6 2477/2/6 2479/2/6
f 2477/2/6 2478/2/6 2479/2/6
f 2478/2/6 2476/2/6 2480/2/6
f 2479/2/6 2478/2/6 2480/2/6
f 2481/2/6 2482/2/6 2483/2/6
f 2483/2/6 2482/2/6 2484/2/6
f 2485/2/6 2486/2/6 2489/2/6
f 2489/2/6 2486/2/6 2490/2/6
f 2487/2/6 2488/2/6 2491/2/6
f 2491/2/6 2488/2/6 2492/2/6
f 2485/2/6 2489/2/6 2493/2/6
f 2493/2/6 2489/2/6 2494/2/6
f 2490/2/6 2486/2/6 2495/2/6
f 2495/2/6 2486/2/6 2496/2/6
f 2497/2/6 2498/2/6 2499/2/6
f 2499/2/6 2498/2/6 2500/2/6
f 2500/2/6 2498/2/6 2501/2/6
f 2501/2/6 2498/2/6 2502/2/6
f 2503/1/6 2504/1/6 2505/1/6
f 2505/1/6 2504/1/6 2506/1/6
f 2507/1/6 2508/1/6 2509/1/6
f 2509/1/6 2508/1/6 2510/1/6
f 2511/2/6 2512/2/6 2515/2/6
f 2513/2/6 2514/2/6 2516/2/6
f 2514/2/6 2515/2/6 2516/2/6
f 2515/2/6 2512/2/6 2516/2/6
f 2516/2/6 2517/2/6 2520/2/6
f 2518/2/6 2519/2/6 2521/2/6
f 2513/2/6 2516/2/6 2522/2/6
f 2520/2/6 2521/2/6 2522/2/6
f 2516/2/6 2520/2/6 2522/2/6
f 2521/2/6 2519/2/6 2523/2/6
f 2522/2/6 2521/2/6 2523/2/6
f 2524/1/6 2525/1/6 2526/1/6
f 2526/1/6 2525/1/6 2527/1/6
f 2528/1/6 2529/1/6 2531/1/6
f 2531/1/6 2529/1/6 2532/1/6
f 2530/2/6 2531/2/6 2536/2/6
f 2531/2/6 2532/2/6 2536/2/6
f 2536/2/6 2532/2/6 2537/2/6
f 2533/1/6 2534/1/6 2538/1/6
f 2538/1/6 2534/1/6 2539/1/6
f 2536/2/6 2537/2/6 2542/2/6
f 2535/2/6 2536/2/6 2542/2/6
f 2539/2/6 2540/2/6 2542/2/6
f 2538/2/6 2539/2/6 2542/2/6
f 2537/2/6 2538/2/6 2542/2/6
f 2540/1/6 2541/1/6 2543/1/6
f 2542/2/6 2540/2/6 2543/2/6
f 2543/1/6 2541/1/6 2544/1/6
f 2545/1/6 2546/1/6 2547/1/6
f 2547/1/6 2546/1/6 2548/1/6
f 2535/2/6 2542/2/6 2549/2/6
f 2549/2/6 2542/2/6 2550/2/6
f 2551/2/6 2552/2/6 2554/2/6
f 2553/2/6 2554/2/6 2556/2/6
f 2555/2/6 2556/2/6 2557/2/6
f 2554/2/6 2552/2/6 2558/2/6
f 2557/2/6 2556/2/6 2558/2/6
f 2556/2/6 2554/2/6 2558/2/6
f 2559/2/6 2560/2/6 2561/2/6
f 2555/2/6 2557/2/6 2562/2/6
f 2559/2/6 2561/2/6 2563/2/6
f 2561/2/6 2562/2/6 2563/2/6
f 2563/2/6 2562/2/6 2564/2/6
f 2564/2/6 2562/2/6 2565/2/6
f 2562/2/6 2557/2/6 2566/2/6
f 2565/2/6 2562/2/6 2566/2/6
f 2564/1/6 2565/1/6 2567/1/6
f 2567/1/6 2565/1/6 2568/1/6
f 2569/2/6 2570/2/6 2571/2/6
f 2571/2/6 2570/2/6 2572/2/6
f 2572/2/6 2570/2/6 2573/2/6
f 2573/2/6 2570/2/6 2574/2/6
f 2575/2/6 2576/2/6 2577/2/6
f 2577/2/6 2576/2/6 2578/2/6
f 2579/2/6 2580/2/6 2581/2/6
f 2579/2/6 2581/2/6 2584/2/6
f 2581/2/6 2582/2/6 2584/2/6
f 2583/2/6 2584/2/6 2585/2/6
f 2584/2/6 2582/2/6 2586/2/6
f 2585/2/6 2584/2/6 2586/2/6
f 2587/1/6 2588/1/6 2589/1/6
f 2589/1/6 2588/1/6 2590/1/6
f 2591/2/6 2592/2/6 2594/2/6
f 2593/2/6 2594/2/6 2595/2/6
f 2594/2/6 2592/2/6 2596/2/6
f 2595/2/6 2594/2/6 2596/2/6
f 2597/2/6 2598/2/6 2603/2/6
f 2603/2/6 2598/2/6 2604/2/6
f 2601/2/6 2602/2/6 2605/2/6
f 2605/2/6 2602/2/6 2606/2/6
f 2604/2/6 2598/2/6 2607/2/6
f 2599/2/6 2600/2/6 2608/2/6
f 2604/2/6 2607/2/6 2609/2/6
f 2607/2/6 2608/2/6 2609/2/6
f 2608/2/6 2600/2/6 2610/2/6
f 2609/2/6 2608/2/6 2610/2/6
f 2604/2/6 2609/2/6 2611/2/6
f 2610/2/6 2600/2/6 2612/2/6
f 2612/2/6 2600/2/6 2613/2/6
f 2611/2/6 2612/2/6 2613/2/6
f 2604/2/6 2611/2/6 2615/2/6
f 2613/2/6 2614/2/6 2615/2/6
f 2611/2/6 2613/2/6 2615/2/6
f 2615/2/6 2614/2/6 2616/2/6
f 2617/2/6 2618/2/6 2623/2/6
f 2623/2/6 2618/2/6 2624/2/6
f 2625/2/6 2626/2/6 2627/2/6
f 2627/2/6 2626/2/6 2628/2/6
f 2619/2/6 2620/2/6 2629/2/6
f 2629/2/6 2620/2/6 2630/2/6
f 2621/2/6 2622/2/6 2631/2/6
f 2631/2/6 2622/2/6 2632/2/6
f 2621/2/6 2631/2/6 2633/2/6
f 2632/2/6 2622/2/6 2634/2/6
f 2621/2/6 2633/2/6 2635/2/6
f 2633/2/6 2634/2/6 2635/2/6
f 2634/2/6 2622/2/6 2636/2/6
f 2635/2/6 2634/2/6 2636/2/6
f 2637/2/6 2638/2/6 2639/2/6
f 2639/2/6 2638/2/6 2640/2/6
f 2641/2/6 2642/2/6 2643/2/6
f 2641/2/6 2643/2/6 2645/2/6
f 2643/2/6 2644/2/6 2645/2/6
f 2645/2/6 2644/2/6 2646/2/6
f 2647/1/6 2648/1/6 2649/1/6
f 2649/1/6 2648/1/6 2650/1/6
f 2651/1/6 2652/1/6 2654/1/6
f 2654/1/6 2652/1/6 2655/1/6
f 2653/2/6 2654/2/6 2657/2/6
f 2655/2/6 2656/2/6 2657/2/6
f 2654/2/6 2655/2/6 2657/2/6
f 2657/2/6 2658/2/6 2659/2/6
f 2659/2/6 2660/2/6 2661/2/6
f 2659/2/6 2661/2/6 2663/2/6
f 2661/1/6 2662/1/6 2663/1/6
f 2663/1/6 2662/1/6 2664/1/6
f 2653/2/6 2657/2/6 2665/2/6
f 2657/2/6 2659/2/6 2665/2/6
f 2659/2/6 2663/2/6 2665/2/6
f 2665/2/6 2663/2/6 2666/2/6
f 2666/2/6 2663/2/6 2667/2/6
f 2667/2/6 2663/2/6 2669/2/6
f 2669/2/6 2663/2/6 2670/2/6
f 2670/2/6 2663/2/6 2671/2/6
f 2668/2/6 2669/2/6 2672/2/6
f 2669/2/6 2670/2/6 2672/2/6
f 2672/2/6 2670/2/6 2673/2/6
f 2673/2/6 2670/2/6 2674/2/6
f 2671/2/6 2663/2/6 2675/2/6
f 2673/2/6 2674/2/6 2676/2/6
f 2674/2/6 2675/2/6 2676/2/6
f 2675/2/6 2663/2/6 2677/2/6
f 2676/2/6 2675/2/6 2677/2/6
f 2678/1/6 2679/1/6 2680/1/6
f 2680/1/6 2679/1/6 2681/1/6
f 2682/1/6 2683/1/6 2684/1/6
f 2684/1/6 2683/1/6 2685/1/6
